<?xml version='1.0' encoding='UTF-8' ?>
<svg xmlns='http://www.w3.org/2000/svg' xmlns:xlink='http://www.w3.org/1999/xlink' class='svglite' width='432.00pt' height='720.00pt' viewBox='0 0 432.00 720.00'>
<defs>
  <style type='text/css'><![CDATA[
    .svglite line, .svglite polyline, .svglite polygon, .svglite path, .svglite rect, .svglite circle {
      fill: none;
      stroke: #000000;
      stroke-linecap: round;
      stroke-linejoin: round;
      stroke-miterlimit: 10.00;
    }
    .svglite text {
      white-space: pre;
    }
  ]]></style>
</defs>
<rect width='100%' height='100%' style='stroke: none; fill: none;'/>
<defs>
  <clipPath id='cpMC4wMHw0MzIuMDB8MC4wMHw3MjAuMDA='>
    <rect x='0.00' y='0.00' width='432.00' height='720.00' />
  </clipPath>
</defs>
<g clip-path='url(#cpMC4wMHw0MzIuMDB8MC4wMHw3MjAuMDA=)'>
<rect x='0.000000000000032' y='0.00' width='432.00' height='720.00' style='stroke-width: 1.07; stroke: #FFFFFF; fill: #FFFFFF;' />
</g>
<defs>
  <clipPath id='cpNS40OHwyNDIuNjN8MzguODV8MTczLjk5'>
    <rect x='5.48' y='38.85' width='237.15' height='135.13' />
  </clipPath>
</defs>
<g clip-path='url(#cpNS40OHwyNDIuNjN8MzguODV8MTczLjk5)'>
<rect x='5.48' y='38.85' width='237.15' height='135.13' style='stroke-width: 1.07; stroke: #FFFFFF; fill: #FFFFFF;' />
</g>
<g clip-path='url(#cpMC4wMHw0MzIuMDB8MC4wMHw3MjAuMDA=)'>
</g>
<defs>
  <clipPath id='cpNjYuOTZ8MjM3LjE1fDQ0LjMzfDE1NS40Mg=='>
    <rect x='66.96' y='44.33' width='170.19' height='111.09' />
  </clipPath>
</defs>
<g clip-path='url(#cpNjYuOTZ8MjM3LjE1fDQ0LjMzfDE1NS40Mg==)'>
<rect x='66.96' y='44.33' width='170.19' height='111.09' style='stroke-width: 1.07; stroke: none; fill: #FFFFFF;' />
<polyline points='94.03,155.42 94.03,44.33 ' style='stroke-width: 0.53; stroke: #EBEBEB; stroke-linecap: butt;' />
<polyline points='132.71,155.42 132.71,44.33 ' style='stroke-width: 0.53; stroke: #EBEBEB; stroke-linecap: butt;' />
<polyline points='171.39,155.42 171.39,44.33 ' style='stroke-width: 0.53; stroke: #EBEBEB; stroke-linecap: butt;' />
<polyline points='210.07,155.42 210.07,44.33 ' style='stroke-width: 0.53; stroke: #EBEBEB; stroke-linecap: butt;' />
<polyline points='74.69,155.42 74.69,44.33 ' style='stroke-width: 1.07; stroke: #EBEBEB; stroke-linecap: butt;' />
<polyline points='113.37,155.42 113.37,44.33 ' style='stroke-width: 1.07; stroke: #EBEBEB; stroke-linecap: butt;' />
<polyline points='152.05,155.42 152.05,44.33 ' style='stroke-width: 1.07; stroke: #EBEBEB; stroke-linecap: butt;' />
<polyline points='190.73,155.42 190.73,44.33 ' style='stroke-width: 1.07; stroke: #EBEBEB; stroke-linecap: butt;' />
<polyline points='229.41,155.42 229.41,44.33 ' style='stroke-width: 1.07; stroke: #EBEBEB; stroke-linecap: butt;' />
<line x1='74.69' y1='155.42' x2='74.69' y2='44.33' style='stroke-width: 1.07; stroke-linecap: butt;' />
<polygon points='164.62,52.24 177.89,49.38 188.90,52.24 177.89,55.10 164.62,52.24 ' style='stroke-width: 1.07; stroke: #440154; fill: #440154; fill-opacity: 0.33;' />
<polygon points='136.89,71.29 154.10,68.44 169.00,71.29 154.10,74.15 136.89,71.29 ' style='stroke-width: 1.07; stroke: #440154; fill: #440154; fill-opacity: 0.33;' />
<polygon points='87.15,90.35 108.45,87.49 128.49,90.35 108.45,93.21 87.15,90.35 ' style='stroke-width: 1.07; stroke: #440154; fill: #440154; fill-opacity: 0.33;' />
<polygon points='133.63,109.41 151.23,106.55 166.54,109.41 151.23,112.26 133.63,109.41 ' style='stroke-width: 1.07; stroke: #440154; fill: #440154; fill-opacity: 0.33;' />
<polygon points='114.12,128.46 133.69,125.60 151.28,128.46 133.69,131.32 114.12,128.46 ' style='stroke-width: 1.07; stroke: #440154; fill: #440154; fill-opacity: 0.33;' />
<polygon points='87.07,147.52 108.38,144.66 128.42,147.52 108.38,150.37 87.07,147.52 ' style='stroke-width: 1.07; stroke: #440154; fill: #440154; fill-opacity: 0.33;' />
<polygon points='159.87,52.24 173.90,49.38 185.61,52.24 173.90,55.10 159.87,52.24 ' style='stroke-width: 1.07; stroke: #21908C; fill: #21908C; fill-opacity: 0.33;' />
<polygon points='100.60,71.29 121.19,68.44 140.12,71.29 121.19,74.15 100.60,71.29 ' style='stroke-width: 1.07; stroke: #21908C; fill: #21908C; fill-opacity: 0.33;' />
<polygon points='77.03,90.35 98.66,87.49 119.38,90.35 98.66,93.21 77.03,90.35 ' style='stroke-width: 1.07; stroke: #21908C; fill: #21908C; fill-opacity: 0.33;' />
<polygon points='126.99,109.41 145.33,106.55 161.46,109.41 145.33,112.26 126.99,109.41 ' style='stroke-width: 1.07; stroke: #21908C; fill: #21908C; fill-opacity: 0.33;' />
<polygon points='114.12,128.46 133.69,125.60 151.29,128.46 133.69,131.32 114.12,128.46 ' style='stroke-width: 1.07; stroke: #21908C; fill: #21908C; fill-opacity: 0.33;' />
<polygon points='111.18,147.52 131.00,144.66 148.90,147.52 131.00,150.37 111.18,147.52 ' style='stroke-width: 1.07; stroke: #21908C; fill: #21908C; fill-opacity: 0.33;' />
<polygon points='166.19,52.24 178.54,49.38 188.86,52.24 178.54,55.10 166.19,52.24 ' style='stroke-width: 1.07; stroke: #FDE725; fill: #FDE725; fill-opacity: 0.33;' />
<polygon points='120.57,71.29 138.53,68.44 154.63,71.29 138.53,74.15 120.57,71.29 ' style='stroke-width: 1.07; stroke: #FDE725; fill: #FDE725; fill-opacity: 0.33;' />
<polygon points='82.12,90.35 102.41,87.49 121.76,90.35 102.41,93.21 82.12,90.35 ' style='stroke-width: 1.07; stroke: #FDE725; fill: #FDE725; fill-opacity: 0.33;' />
<polygon points='116.88,109.41 135.16,106.55 151.65,109.41 135.16,112.26 116.88,109.41 ' style='stroke-width: 1.07; stroke: #FDE725; fill: #FDE725; fill-opacity: 0.33;' />
<polygon points='101.72,128.46 121.11,125.60 139.02,128.46 121.11,131.32 101.72,128.46 ' style='stroke-width: 1.07; stroke: #FDE725; fill: #FDE725; fill-opacity: 0.33;' />
<polygon points='89.09,147.52 109.13,144.66 128.03,147.52 109.13,150.37 89.09,147.52 ' style='stroke-width: 1.07; stroke: #FDE725; fill: #FDE725; fill-opacity: 0.33;' />
<rect x='66.96' y='44.33' width='170.19' height='111.09' style='stroke-width: 1.07; stroke: #333333;' />
</g>
<g clip-path='url(#cpMC4wMHw0MzIuMDB8MC4wMHw3MjAuMDA=)'>
<text x='62.03' y='55.39' text-anchor='end' style='font-size: 8.80px;fill: #4D4D4D; font-family: "Arial";' textLength='28.38px' lengthAdjust='spacingAndGlyphs'>Att - Int</text>
<text x='62.03' y='74.44' text-anchor='end' style='font-size: 8.80px;fill: #4D4D4D; font-family: "Arial";' textLength='29.84px' lengthAdjust='spacingAndGlyphs'>PN - Int</text>
<text x='62.03' y='93.50' text-anchor='end' style='font-size: 8.80px;fill: #4D4D4D; font-family: "Arial";' textLength='35.70px' lengthAdjust='spacingAndGlyphs'>PBC - Int</text>
<text x='62.03' y='112.56' text-anchor='end' style='font-size: 8.80px;fill: #4D4D4D; font-family: "Arial";' textLength='30.81px' lengthAdjust='spacingAndGlyphs'>Att - PN</text>
<text x='62.03' y='131.61' text-anchor='end' style='font-size: 8.80px;fill: #4D4D4D; font-family: "Arial";' textLength='36.68px' lengthAdjust='spacingAndGlyphs'>Att - PBC</text>
<text x='62.03' y='150.67' text-anchor='end' style='font-size: 8.80px;fill: #4D4D4D; font-family: "Arial";' textLength='38.13px' lengthAdjust='spacingAndGlyphs'>PN - PBC</text>
<polyline points='64.22,52.24 66.96,52.24 ' style='stroke-width: 1.07; stroke: #333333; stroke-linecap: butt;' />
<polyline points='64.22,71.29 66.96,71.29 ' style='stroke-width: 1.07; stroke: #333333; stroke-linecap: butt;' />
<polyline points='64.22,90.35 66.96,90.35 ' style='stroke-width: 1.07; stroke: #333333; stroke-linecap: butt;' />
<polyline points='64.22,109.41 66.96,109.41 ' style='stroke-width: 1.07; stroke: #333333; stroke-linecap: butt;' />
<polyline points='64.22,128.46 66.96,128.46 ' style='stroke-width: 1.07; stroke: #333333; stroke-linecap: butt;' />
<polyline points='64.22,147.52 66.96,147.52 ' style='stroke-width: 1.07; stroke: #333333; stroke-linecap: butt;' />
<polyline points='74.69,158.16 74.69,155.42 ' style='stroke-width: 1.07; stroke: #333333; stroke-linecap: butt;' />
<polyline points='113.37,158.16 113.37,155.42 ' style='stroke-width: 1.07; stroke: #333333; stroke-linecap: butt;' />
<polyline points='152.05,158.16 152.05,155.42 ' style='stroke-width: 1.07; stroke: #333333; stroke-linecap: butt;' />
<polyline points='190.73,158.16 190.73,155.42 ' style='stroke-width: 1.07; stroke: #333333; stroke-linecap: butt;' />
<polyline points='229.41,158.16 229.41,155.42 ' style='stroke-width: 1.07; stroke: #333333; stroke-linecap: butt;' />
<text x='74.69' y='166.66' text-anchor='middle' style='font-size: 8.80px;fill: #4D4D4D; font-family: "Arial";' textLength='4.90px' lengthAdjust='spacingAndGlyphs'>0</text>
<text x='113.37' y='166.66' text-anchor='middle' style='font-size: 8.80px;fill: #4D4D4D; font-family: "Arial";' textLength='12.24px' lengthAdjust='spacingAndGlyphs'>.25</text>
<text x='152.05' y='166.66' text-anchor='middle' style='font-size: 8.80px;fill: #4D4D4D; font-family: "Arial";' textLength='7.34px' lengthAdjust='spacingAndGlyphs'>.5</text>
<text x='190.73' y='166.66' text-anchor='middle' style='font-size: 8.80px;fill: #4D4D4D; font-family: "Arial";' textLength='12.24px' lengthAdjust='spacingAndGlyphs'>.75</text>
<text x='229.41' y='166.66' text-anchor='middle' style='font-size: 8.80px;fill: #4D4D4D; font-family: "Arial";' textLength='4.90px' lengthAdjust='spacingAndGlyphs'>1</text>
<text transform='translate(18.84,99.88) rotate(-90)' text-anchor='middle' style='font-size: 11.00px; font-family: "Arial";' textLength='36.08px' lengthAdjust='spacingAndGlyphs'>Alcohol</text>
</g>
<defs>
  <clipPath id='cpNS40OHwyNDIuNjN8MTczLjk5fDMwOS4xMg=='>
    <rect x='5.48' y='173.99' width='237.15' height='135.13' />
  </clipPath>
</defs>
<g clip-path='url(#cpNS40OHwyNDIuNjN8MTczLjk5fDMwOS4xMg==)'>
<rect x='5.48' y='173.99' width='237.15' height='135.13' style='stroke-width: 1.07; stroke: #FFFFFF; fill: #FFFFFF;' />
</g>
<g clip-path='url(#cpMC4wMHw0MzIuMDB8MC4wMHw3MjAuMDA=)'>
</g>
<defs>
  <clipPath id='cpNjYuOTZ8MjM3LjE1fDE3OS40N3wyOTAuNTY='>
    <rect x='66.96' y='179.47' width='170.19' height='111.09' />
  </clipPath>
</defs>
<g clip-path='url(#cpNjYuOTZ8MjM3LjE1fDE3OS40N3wyOTAuNTY=)'>
<rect x='66.96' y='179.47' width='170.19' height='111.09' style='stroke-width: 1.07; stroke: none; fill: #FFFFFF;' />
<polyline points='94.03,290.56 94.03,179.47 ' style='stroke-width: 0.53; stroke: #EBEBEB; stroke-linecap: butt;' />
<polyline points='132.71,290.56 132.71,179.47 ' style='stroke-width: 0.53; stroke: #EBEBEB; stroke-linecap: butt;' />
<polyline points='171.39,290.56 171.39,179.47 ' style='stroke-width: 0.53; stroke: #EBEBEB; stroke-linecap: butt;' />
<polyline points='210.07,290.56 210.07,179.47 ' style='stroke-width: 0.53; stroke: #EBEBEB; stroke-linecap: butt;' />
<polyline points='74.69,290.56 74.69,179.47 ' style='stroke-width: 1.07; stroke: #EBEBEB; stroke-linecap: butt;' />
<polyline points='113.37,290.56 113.37,179.47 ' style='stroke-width: 1.07; stroke: #EBEBEB; stroke-linecap: butt;' />
<polyline points='152.05,290.56 152.05,179.47 ' style='stroke-width: 1.07; stroke: #EBEBEB; stroke-linecap: butt;' />
<polyline points='190.73,290.56 190.73,179.47 ' style='stroke-width: 1.07; stroke: #EBEBEB; stroke-linecap: butt;' />
<polyline points='229.41,290.56 229.41,179.47 ' style='stroke-width: 1.07; stroke: #EBEBEB; stroke-linecap: butt;' />
<line x1='74.69' y1='290.56' x2='74.69' y2='179.47' style='stroke-width: 1.07; stroke-linecap: butt;' />
<polygon points='186.40,187.37 195.57,184.51 202.99,187.37 195.57,190.23 186.40,187.37 ' style='stroke-width: 1.07; stroke: #440154; fill: #440154; fill-opacity: 0.33;' />
<polygon points='126.76,206.43 144.61,203.57 160.39,206.43 144.61,209.29 126.76,206.43 ' style='stroke-width: 1.07; stroke: #440154; fill: #440154; fill-opacity: 0.33;' />
<polygon points='92.78,225.48 113.22,222.63 132.31,225.48 113.22,228.34 92.78,225.48 ' style='stroke-width: 1.07; stroke: #440154; fill: #440154; fill-opacity: 0.33;' />
<polygon points='117.18,244.54 135.94,241.68 152.78,244.54 135.94,247.40 117.18,244.54 ' style='stroke-width: 1.07; stroke: #440154; fill: #440154; fill-opacity: 0.33;' />
<polygon points='111.22,263.59 130.48,260.74 147.93,263.59 130.48,266.45 111.22,263.59 ' style='stroke-width: 1.07; stroke: #440154; fill: #440154; fill-opacity: 0.33;' />
<polygon points='77.04,282.65 93.43,279.79 113.84,282.65 93.43,285.51 77.04,282.65 ' style='stroke-width: 1.07; stroke: #440154; fill: #440154; fill-opacity: 0.33;' />
<polygon points='179.67,187.37 190.07,184.51 198.55,187.37 190.07,190.23 179.67,187.37 ' style='stroke-width: 1.07; stroke: #21908C; fill: #21908C; fill-opacity: 0.33;' />
<polygon points='98.00,206.43 118.16,203.57 136.83,206.43 118.16,209.29 98.00,206.43 ' style='stroke-width: 1.07; stroke: #21908C; fill: #21908C; fill-opacity: 0.33;' />
<polygon points='81.30,225.48 102.19,222.63 122.09,225.48 102.19,228.34 81.30,225.48 ' style='stroke-width: 1.07; stroke: #21908C; fill: #21908C; fill-opacity: 0.33;' />
<polygon points='106.44,244.54 126.06,241.68 143.98,244.54 126.06,247.40 106.44,244.54 ' style='stroke-width: 1.07; stroke: #21908C; fill: #21908C; fill-opacity: 0.33;' />
<polygon points='115.97,263.59 134.83,260.74 151.81,263.59 134.83,266.45 115.97,263.59 ' style='stroke-width: 1.07; stroke: #21908C; fill: #21908C; fill-opacity: 0.33;' />
<polygon points='88.47,282.65 109.11,279.79 128.53,282.65 109.11,285.51 88.47,282.65 ' style='stroke-width: 1.07; stroke: #21908C; fill: #21908C; fill-opacity: 0.33;' />
<polygon points='186.73,187.37 195.84,184.51 203.20,187.37 195.84,190.23 186.73,187.37 ' style='stroke-width: 1.07; stroke: #FDE725; fill: #FDE725; fill-opacity: 0.33;' />
<polygon points='137.06,206.43 153.77,203.57 168.31,206.43 153.77,209.29 137.06,206.43 ' style='stroke-width: 1.07; stroke: #FDE725; fill: #FDE725; fill-opacity: 0.33;' />
<polygon points='102.92,225.48 122.78,222.63 141.02,225.48 122.78,228.34 102.92,225.48 ' style='stroke-width: 1.07; stroke: #FDE725; fill: #FDE725; fill-opacity: 0.33;' />
<polygon points='152.76,244.54 167.44,241.68 179.91,244.54 167.44,247.40 152.76,244.54 ' style='stroke-width: 1.07; stroke: #FDE725; fill: #FDE725; fill-opacity: 0.33;' />
<polygon points='125.26,263.59 143.26,260.74 159.21,263.59 143.26,266.45 125.26,263.59 ' style='stroke-width: 1.07; stroke: #FDE725; fill: #FDE725; fill-opacity: 0.33;' />
<polygon points='104.12,282.65 123.90,279.79 142.03,282.65 123.90,285.51 104.12,282.65 ' style='stroke-width: 1.07; stroke: #FDE725; fill: #FDE725; fill-opacity: 0.33;' />
<rect x='66.96' y='179.47' width='170.19' height='111.09' style='stroke-width: 1.07; stroke: #333333;' />
</g>
<g clip-path='url(#cpMC4wMHw0MzIuMDB8MC4wMHw3MjAuMDA=)'>
<text x='62.03' y='190.52' text-anchor='end' style='font-size: 8.80px;fill: #4D4D4D; font-family: "Arial";' textLength='28.38px' lengthAdjust='spacingAndGlyphs'>Att - Int</text>
<text x='62.03' y='209.58' text-anchor='end' style='font-size: 8.80px;fill: #4D4D4D; font-family: "Arial";' textLength='29.84px' lengthAdjust='spacingAndGlyphs'>PN - Int</text>
<text x='62.03' y='228.63' text-anchor='end' style='font-size: 8.80px;fill: #4D4D4D; font-family: "Arial";' textLength='35.70px' lengthAdjust='spacingAndGlyphs'>PBC - Int</text>
<text x='62.03' y='247.69' text-anchor='end' style='font-size: 8.80px;fill: #4D4D4D; font-family: "Arial";' textLength='30.81px' lengthAdjust='spacingAndGlyphs'>Att - PN</text>
<text x='62.03' y='266.74' text-anchor='end' style='font-size: 8.80px;fill: #4D4D4D; font-family: "Arial";' textLength='36.68px' lengthAdjust='spacingAndGlyphs'>Att - PBC</text>
<text x='62.03' y='285.80' text-anchor='end' style='font-size: 8.80px;fill: #4D4D4D; font-family: "Arial";' textLength='38.13px' lengthAdjust='spacingAndGlyphs'>PN - PBC</text>
<polyline points='64.22,187.37 66.96,187.37 ' style='stroke-width: 1.07; stroke: #333333; stroke-linecap: butt;' />
<polyline points='64.22,206.43 66.96,206.43 ' style='stroke-width: 1.07; stroke: #333333; stroke-linecap: butt;' />
<polyline points='64.22,225.48 66.96,225.48 ' style='stroke-width: 1.07; stroke: #333333; stroke-linecap: butt;' />
<polyline points='64.22,244.54 66.96,244.54 ' style='stroke-width: 1.07; stroke: #333333; stroke-linecap: butt;' />
<polyline points='64.22,263.59 66.96,263.59 ' style='stroke-width: 1.07; stroke: #333333; stroke-linecap: butt;' />
<polyline points='64.22,282.65 66.96,282.65 ' style='stroke-width: 1.07; stroke: #333333; stroke-linecap: butt;' />
<polyline points='74.69,293.30 74.69,290.56 ' style='stroke-width: 1.07; stroke: #333333; stroke-linecap: butt;' />
<polyline points='113.37,293.30 113.37,290.56 ' style='stroke-width: 1.07; stroke: #333333; stroke-linecap: butt;' />
<polyline points='152.05,293.30 152.05,290.56 ' style='stroke-width: 1.07; stroke: #333333; stroke-linecap: butt;' />
<polyline points='190.73,293.30 190.73,290.56 ' style='stroke-width: 1.07; stroke: #333333; stroke-linecap: butt;' />
<polyline points='229.41,293.30 229.41,290.56 ' style='stroke-width: 1.07; stroke: #333333; stroke-linecap: butt;' />
<text x='74.69' y='301.79' text-anchor='middle' style='font-size: 8.80px;fill: #4D4D4D; font-family: "Arial";' textLength='4.90px' lengthAdjust='spacingAndGlyphs'>0</text>
<text x='113.37' y='301.79' text-anchor='middle' style='font-size: 8.80px;fill: #4D4D4D; font-family: "Arial";' textLength='12.24px' lengthAdjust='spacingAndGlyphs'>.25</text>
<text x='152.05' y='301.79' text-anchor='middle' style='font-size: 8.80px;fill: #4D4D4D; font-family: "Arial";' textLength='7.34px' lengthAdjust='spacingAndGlyphs'>.5</text>
<text x='190.73' y='301.79' text-anchor='middle' style='font-size: 8.80px;fill: #4D4D4D; font-family: "Arial";' textLength='12.24px' lengthAdjust='spacingAndGlyphs'>.75</text>
<text x='229.41' y='301.79' text-anchor='middle' style='font-size: 8.80px;fill: #4D4D4D; font-family: "Arial";' textLength='4.90px' lengthAdjust='spacingAndGlyphs'>1</text>
<text transform='translate(18.84,235.01) rotate(-90)' text-anchor='middle' style='font-size: 11.00px; font-family: "Arial";' textLength='32.22px' lengthAdjust='spacingAndGlyphs'>Coffee</text>
</g>
<defs>
  <clipPath id='cpNS40OHwyNDIuNjN8MzA5LjEyfDQ0NC4yNQ=='>
    <rect x='5.48' y='309.12' width='237.15' height='135.13' />
  </clipPath>
</defs>
<g clip-path='url(#cpNS40OHwyNDIuNjN8MzA5LjEyfDQ0NC4yNQ==)'>
<rect x='5.48' y='309.12' width='237.15' height='135.13' style='stroke-width: 1.07; stroke: #FFFFFF; fill: #FFFFFF;' />
</g>
<g clip-path='url(#cpMC4wMHw0MzIuMDB8MC4wMHw3MjAuMDA=)'>
</g>
<defs>
  <clipPath id='cpNjYuOTZ8MjM3LjE1fDMxNC42MHw0MjUuNjk='>
    <rect x='66.96' y='314.60' width='170.19' height='111.09' />
  </clipPath>
</defs>
<g clip-path='url(#cpNjYuOTZ8MjM3LjE1fDMxNC42MHw0MjUuNjk=)'>
<rect x='66.96' y='314.60' width='170.19' height='111.09' style='stroke-width: 1.07; stroke: none; fill: #FFFFFF;' />
<polyline points='94.03,425.69 94.03,314.60 ' style='stroke-width: 0.53; stroke: #EBEBEB; stroke-linecap: butt;' />
<polyline points='132.71,425.69 132.71,314.60 ' style='stroke-width: 0.53; stroke: #EBEBEB; stroke-linecap: butt;' />
<polyline points='171.39,425.69 171.39,314.60 ' style='stroke-width: 0.53; stroke: #EBEBEB; stroke-linecap: butt;' />
<polyline points='210.07,425.69 210.07,314.60 ' style='stroke-width: 0.53; stroke: #EBEBEB; stroke-linecap: butt;' />
<polyline points='74.69,425.69 74.69,314.60 ' style='stroke-width: 1.07; stroke: #EBEBEB; stroke-linecap: butt;' />
<polyline points='113.37,425.69 113.37,314.60 ' style='stroke-width: 1.07; stroke: #EBEBEB; stroke-linecap: butt;' />
<polyline points='152.05,425.69 152.05,314.60 ' style='stroke-width: 1.07; stroke: #EBEBEB; stroke-linecap: butt;' />
<polyline points='190.73,425.69 190.73,314.60 ' style='stroke-width: 1.07; stroke: #EBEBEB; stroke-linecap: butt;' />
<polyline points='229.41,425.69 229.41,314.60 ' style='stroke-width: 1.07; stroke: #EBEBEB; stroke-linecap: butt;' />
<line x1='74.69' y1='425.69' x2='74.69' y2='314.60' style='stroke-width: 1.07; stroke-linecap: butt;' />
<polygon points='159.06,322.51 172.80,319.65 184.36,322.51 172.80,325.37 159.06,322.51 ' style='stroke-width: 1.07; stroke: #440154; fill: #440154; fill-opacity: 0.33;' />
<polygon points='135.48,341.56 152.34,338.70 167.05,341.56 152.34,344.42 135.48,341.56 ' style='stroke-width: 1.07; stroke: #440154; fill: #440154; fill-opacity: 0.33;' />
<polygon points='167.45,360.62 179.89,357.76 190.23,360.62 179.89,363.48 167.45,360.62 ' style='stroke-width: 1.07; stroke: #440154; fill: #440154; fill-opacity: 0.33;' />
<polygon points='139.66,379.67 156.02,376.81 170.21,379.67 156.02,382.53 139.66,379.67 ' style='stroke-width: 1.07; stroke: #440154; fill: #440154; fill-opacity: 0.33;' />
<polygon points='143.11,398.73 159.04,395.87 172.78,398.73 159.04,401.59 143.11,398.73 ' style='stroke-width: 1.07; stroke: #440154; fill: #440154; fill-opacity: 0.33;' />
<polygon points='110.64,417.78 129.90,414.93 147.38,417.78 129.90,420.64 110.64,417.78 ' style='stroke-width: 1.07; stroke: #440154; fill: #440154; fill-opacity: 0.33;' />
<polygon points='150.81,322.51 165.73,319.65 178.44,322.51 165.73,325.37 150.81,322.51 ' style='stroke-width: 1.07; stroke: #21908C; fill: #21908C; fill-opacity: 0.33;' />
<polygon points='104.14,341.56 123.87,338.70 141.96,341.56 123.87,344.42 104.14,341.56 ' style='stroke-width: 1.07; stroke: #21908C; fill: #21908C; fill-opacity: 0.33;' />
<polygon points='132.16,360.62 149.39,357.76 164.50,360.62 149.39,363.48 132.16,360.62 ' style='stroke-width: 1.07; stroke: #21908C; fill: #21908C; fill-opacity: 0.33;' />
<polygon points='137.41,379.67 154.04,376.81 168.51,379.67 154.04,382.53 137.41,379.67 ' style='stroke-width: 1.07; stroke: #21908C; fill: #21908C; fill-opacity: 0.33;' />
<polygon points='167.39,398.73 179.84,395.87 190.18,398.73 179.84,401.59 167.39,398.73 ' style='stroke-width: 1.07; stroke: #21908C; fill: #21908C; fill-opacity: 0.33;' />
<polygon points='114.93,417.78 133.84,414.93 150.88,417.78 133.84,420.64 114.93,417.78 ' style='stroke-width: 1.07; stroke: #21908C; fill: #21908C; fill-opacity: 0.33;' />
<polygon points='143.61,322.51 159.55,319.65 173.28,322.51 159.55,325.37 143.61,322.51 ' style='stroke-width: 1.07; stroke: #FDE725; fill: #FDE725; fill-opacity: 0.33;' />
<polygon points='87.66,341.56 108.37,338.70 127.89,341.56 108.37,344.42 87.66,341.56 ' style='stroke-width: 1.07; stroke: #FDE725; fill: #FDE725; fill-opacity: 0.33;' />
<polygon points='124.68,360.62 142.78,357.76 158.83,360.62 142.78,363.48 124.68,360.62 ' style='stroke-width: 1.07; stroke: #FDE725; fill: #FDE725; fill-opacity: 0.33;' />
<polygon points='94.08,379.67 114.50,376.81 133.54,379.67 114.50,382.53 94.08,379.67 ' style='stroke-width: 1.07; stroke: #FDE725; fill: #FDE725; fill-opacity: 0.33;' />
<polygon points='173.68,398.73 185.14,395.87 194.57,398.73 185.14,401.59 173.68,398.73 ' style='stroke-width: 1.07; stroke: #FDE725; fill: #FDE725; fill-opacity: 0.33;' />
<polygon points='98.02,417.78 118.23,414.93 136.94,417.78 118.23,420.64 98.02,417.78 ' style='stroke-width: 1.07; stroke: #FDE725; fill: #FDE725; fill-opacity: 0.33;' />
<rect x='66.96' y='314.60' width='170.19' height='111.09' style='stroke-width: 1.07; stroke: #333333;' />
</g>
<g clip-path='url(#cpMC4wMHw0MzIuMDB8MC4wMHw3MjAuMDA=)'>
<text x='62.03' y='325.66' text-anchor='end' style='font-size: 8.80px;fill: #4D4D4D; font-family: "Arial";' textLength='28.38px' lengthAdjust='spacingAndGlyphs'>Att - Int</text>
<text x='62.03' y='344.71' text-anchor='end' style='font-size: 8.80px;fill: #4D4D4D; font-family: "Arial";' textLength='29.84px' lengthAdjust='spacingAndGlyphs'>PN - Int</text>
<text x='62.03' y='363.77' text-anchor='end' style='font-size: 8.80px;fill: #4D4D4D; font-family: "Arial";' textLength='35.70px' lengthAdjust='spacingAndGlyphs'>PBC - Int</text>
<text x='62.03' y='382.82' text-anchor='end' style='font-size: 8.80px;fill: #4D4D4D; font-family: "Arial";' textLength='30.81px' lengthAdjust='spacingAndGlyphs'>Att - PN</text>
<text x='62.03' y='401.88' text-anchor='end' style='font-size: 8.80px;fill: #4D4D4D; font-family: "Arial";' textLength='36.68px' lengthAdjust='spacingAndGlyphs'>Att - PBC</text>
<text x='62.03' y='420.93' text-anchor='end' style='font-size: 8.80px;fill: #4D4D4D; font-family: "Arial";' textLength='38.13px' lengthAdjust='spacingAndGlyphs'>PN - PBC</text>
<polyline points='64.22,322.51 66.96,322.51 ' style='stroke-width: 1.07; stroke: #333333; stroke-linecap: butt;' />
<polyline points='64.22,341.56 66.96,341.56 ' style='stroke-width: 1.07; stroke: #333333; stroke-linecap: butt;' />
<polyline points='64.22,360.62 66.96,360.62 ' style='stroke-width: 1.07; stroke: #333333; stroke-linecap: butt;' />
<polyline points='64.22,379.67 66.96,379.67 ' style='stroke-width: 1.07; stroke: #333333; stroke-linecap: butt;' />
<polyline points='64.22,398.73 66.96,398.73 ' style='stroke-width: 1.07; stroke: #333333; stroke-linecap: butt;' />
<polyline points='64.22,417.78 66.96,417.78 ' style='stroke-width: 1.07; stroke: #333333; stroke-linecap: butt;' />
<polyline points='74.69,428.43 74.69,425.69 ' style='stroke-width: 1.07; stroke: #333333; stroke-linecap: butt;' />
<polyline points='113.37,428.43 113.37,425.69 ' style='stroke-width: 1.07; stroke: #333333; stroke-linecap: butt;' />
<polyline points='152.05,428.43 152.05,425.69 ' style='stroke-width: 1.07; stroke: #333333; stroke-linecap: butt;' />
<polyline points='190.73,428.43 190.73,425.69 ' style='stroke-width: 1.07; stroke: #333333; stroke-linecap: butt;' />
<polyline points='229.41,428.43 229.41,425.69 ' style='stroke-width: 1.07; stroke: #333333; stroke-linecap: butt;' />
<text x='74.69' y='436.92' text-anchor='middle' style='font-size: 8.80px;fill: #4D4D4D; font-family: "Arial";' textLength='4.90px' lengthAdjust='spacingAndGlyphs'>0</text>
<text x='113.37' y='436.92' text-anchor='middle' style='font-size: 8.80px;fill: #4D4D4D; font-family: "Arial";' textLength='12.24px' lengthAdjust='spacingAndGlyphs'>.25</text>
<text x='152.05' y='436.92' text-anchor='middle' style='font-size: 8.80px;fill: #4D4D4D; font-family: "Arial";' textLength='7.34px' lengthAdjust='spacingAndGlyphs'>.5</text>
<text x='190.73' y='436.92' text-anchor='middle' style='font-size: 8.80px;fill: #4D4D4D; font-family: "Arial";' textLength='12.24px' lengthAdjust='spacingAndGlyphs'>.75</text>
<text x='229.41' y='436.92' text-anchor='middle' style='font-size: 8.80px;fill: #4D4D4D; font-family: "Arial";' textLength='4.90px' lengthAdjust='spacingAndGlyphs'>1</text>
<text transform='translate(18.84,370.15) rotate(-90)' text-anchor='middle' style='font-size: 11.00px; font-family: "Arial";' textLength='42.80px' lengthAdjust='spacingAndGlyphs'>Smoking</text>
</g>
<defs>
  <clipPath id='cpNS40OHwyNDIuNjN8NDQ0LjI1fDU3OS4zOQ=='>
    <rect x='5.48' y='444.25' width='237.15' height='135.13' />
  </clipPath>
</defs>
<g clip-path='url(#cpNS40OHwyNDIuNjN8NDQ0LjI1fDU3OS4zOQ==)'>
<rect x='5.48' y='444.25' width='237.15' height='135.13' style='stroke-width: 1.07; stroke: #FFFFFF; fill: #FFFFFF;' />
</g>
<g clip-path='url(#cpMC4wMHw0MzIuMDB8MC4wMHw3MjAuMDA=)'>
</g>
<defs>
  <clipPath id='cpNjYuOTZ8MjM3LjE1fDQ0OS43M3w1NjAuODM='>
    <rect x='66.96' y='449.73' width='170.19' height='111.09' />
  </clipPath>
</defs>
<g clip-path='url(#cpNjYuOTZ8MjM3LjE1fDQ0OS43M3w1NjAuODM=)'>
<rect x='66.96' y='449.73' width='170.19' height='111.09' style='stroke-width: 1.07; stroke: none; fill: #FFFFFF;' />
<polyline points='94.03,560.83 94.03,449.73 ' style='stroke-width: 0.53; stroke: #EBEBEB; stroke-linecap: butt;' />
<polyline points='132.71,560.83 132.71,449.73 ' style='stroke-width: 0.53; stroke: #EBEBEB; stroke-linecap: butt;' />
<polyline points='171.39,560.83 171.39,449.73 ' style='stroke-width: 0.53; stroke: #EBEBEB; stroke-linecap: butt;' />
<polyline points='210.07,560.83 210.07,449.73 ' style='stroke-width: 0.53; stroke: #EBEBEB; stroke-linecap: butt;' />
<polyline points='74.69,560.83 74.69,449.73 ' style='stroke-width: 1.07; stroke: #EBEBEB; stroke-linecap: butt;' />
<polyline points='113.37,560.83 113.37,449.73 ' style='stroke-width: 1.07; stroke: #EBEBEB; stroke-linecap: butt;' />
<polyline points='152.05,560.83 152.05,449.73 ' style='stroke-width: 1.07; stroke: #EBEBEB; stroke-linecap: butt;' />
<polyline points='190.73,560.83 190.73,449.73 ' style='stroke-width: 1.07; stroke: #EBEBEB; stroke-linecap: butt;' />
<polyline points='229.41,560.83 229.41,449.73 ' style='stroke-width: 1.07; stroke: #EBEBEB; stroke-linecap: butt;' />
<line x1='74.69' y1='560.83' x2='74.69' y2='449.73' style='stroke-width: 1.07; stroke-linecap: butt;' />
<polygon points='179.29,457.64 189.64,454.78 198.11,457.64 189.64,460.50 179.29,457.64 ' style='stroke-width: 1.07; stroke: #440154; fill: #440154; fill-opacity: 0.33;' />
<polygon points='115.42,476.70 134.11,473.84 150.97,476.70 134.11,479.55 115.42,476.70 ' style='stroke-width: 1.07; stroke: #440154; fill: #440154; fill-opacity: 0.33;' />
<polygon points='133.43,495.75 150.36,492.89 165.21,495.75 150.36,498.61 133.43,495.75 ' style='stroke-width: 1.07; stroke: #440154; fill: #440154; fill-opacity: 0.33;' />
<polygon points='118.76,514.81 137.17,511.95 153.68,514.81 137.17,517.67 118.76,514.81 ' style='stroke-width: 1.07; stroke: #440154; fill: #440154; fill-opacity: 0.33;' />
<polygon points='119.56,533.86 137.89,531.00 154.32,533.86 137.89,536.72 119.56,533.86 ' style='stroke-width: 1.07; stroke: #440154; fill: #440154; fill-opacity: 0.33;' />
<polygon points='98.56,552.92 118.45,550.06 136.89,552.92 118.45,555.78 98.56,552.92 ' style='stroke-width: 1.07; stroke: #440154; fill: #440154; fill-opacity: 0.33;' />
<polygon points='177.29,457.64 187.99,454.78 196.77,457.64 187.99,460.50 177.29,457.64 ' style='stroke-width: 1.07; stroke: #21908C; fill: #21908C; fill-opacity: 0.33;' />
<polygon points='117.78,476.70 136.27,473.84 152.89,476.70 136.27,479.55 117.78,476.70 ' style='stroke-width: 1.07; stroke: #21908C; fill: #21908C; fill-opacity: 0.33;' />
<polygon points='131.80,495.75 148.92,492.89 163.96,495.75 148.92,498.61 131.80,495.75 ' style='stroke-width: 1.07; stroke: #21908C; fill: #21908C; fill-opacity: 0.33;' />
<polygon points='119.05,514.81 137.43,511.95 153.91,514.81 137.43,517.67 119.05,514.81 ' style='stroke-width: 1.07; stroke: #21908C; fill: #21908C; fill-opacity: 0.33;' />
<polygon points='119.27,533.86 137.63,531.00 154.09,533.86 137.63,536.72 119.27,533.86 ' style='stroke-width: 1.07; stroke: #21908C; fill: #21908C; fill-opacity: 0.33;' />
<polygon points='107.61,552.92 126.92,550.06 144.55,552.92 126.92,555.78 107.61,552.92 ' style='stroke-width: 1.07; stroke: #21908C; fill: #21908C; fill-opacity: 0.33;' />
<polygon points='173.97,457.64 185.49,454.78 194.94,457.64 185.49,460.50 173.97,457.64 ' style='stroke-width: 1.07; stroke: #FDE725; fill: #FDE725; fill-opacity: 0.33;' />
<polygon points='122.19,476.70 140.75,473.84 157.24,476.70 140.75,479.55 122.19,476.70 ' style='stroke-width: 1.07; stroke: #FDE725; fill: #FDE725; fill-opacity: 0.33;' />
<polygon points='150.20,495.75 165.44,492.89 178.41,495.75 165.44,498.61 150.20,495.75 ' style='stroke-width: 1.07; stroke: #FDE725; fill: #FDE725; fill-opacity: 0.33;' />
<polygon points='115.03,514.81 134.25,511.95 151.52,514.81 134.25,517.67 115.03,514.81 ' style='stroke-width: 1.07; stroke: #FDE725; fill: #FDE725; fill-opacity: 0.33;' />
<polygon points='144.13,533.86 160.19,531.00 173.98,533.86 160.19,536.72 144.13,533.86 ' style='stroke-width: 1.07; stroke: #FDE725; fill: #FDE725; fill-opacity: 0.33;' />
<polygon points='124.99,552.92 143.27,550.06 159.44,552.92 143.27,555.78 124.99,552.92 ' style='stroke-width: 1.07; stroke: #FDE725; fill: #FDE725; fill-opacity: 0.33;' />
<rect x='66.96' y='449.73' width='170.19' height='111.09' style='stroke-width: 1.07; stroke: #333333;' />
</g>
<g clip-path='url(#cpMC4wMHw0MzIuMDB8MC4wMHw3MjAuMDA=)'>
<text x='62.03' y='460.79' text-anchor='end' style='font-size: 8.80px;fill: #4D4D4D; font-family: "Arial";' textLength='28.38px' lengthAdjust='spacingAndGlyphs'>Att - Int</text>
<text x='62.03' y='479.85' text-anchor='end' style='font-size: 8.80px;fill: #4D4D4D; font-family: "Arial";' textLength='29.84px' lengthAdjust='spacingAndGlyphs'>PN - Int</text>
<text x='62.03' y='498.90' text-anchor='end' style='font-size: 8.80px;fill: #4D4D4D; font-family: "Arial";' textLength='35.70px' lengthAdjust='spacingAndGlyphs'>PBC - Int</text>
<text x='62.03' y='517.96' text-anchor='end' style='font-size: 8.80px;fill: #4D4D4D; font-family: "Arial";' textLength='30.81px' lengthAdjust='spacingAndGlyphs'>Att - PN</text>
<text x='62.03' y='537.01' text-anchor='end' style='font-size: 8.80px;fill: #4D4D4D; font-family: "Arial";' textLength='36.68px' lengthAdjust='spacingAndGlyphs'>Att - PBC</text>
<text x='62.03' y='556.07' text-anchor='end' style='font-size: 8.80px;fill: #4D4D4D; font-family: "Arial";' textLength='38.13px' lengthAdjust='spacingAndGlyphs'>PN - PBC</text>
<polyline points='64.22,457.64 66.96,457.64 ' style='stroke-width: 1.07; stroke: #333333; stroke-linecap: butt;' />
<polyline points='64.22,476.70 66.96,476.70 ' style='stroke-width: 1.07; stroke: #333333; stroke-linecap: butt;' />
<polyline points='64.22,495.75 66.96,495.75 ' style='stroke-width: 1.07; stroke: #333333; stroke-linecap: butt;' />
<polyline points='64.22,514.81 66.96,514.81 ' style='stroke-width: 1.07; stroke: #333333; stroke-linecap: butt;' />
<polyline points='64.22,533.86 66.96,533.86 ' style='stroke-width: 1.07; stroke: #333333; stroke-linecap: butt;' />
<polyline points='64.22,552.92 66.96,552.92 ' style='stroke-width: 1.07; stroke: #333333; stroke-linecap: butt;' />
<polyline points='74.69,563.57 74.69,560.83 ' style='stroke-width: 1.07; stroke: #333333; stroke-linecap: butt;' />
<polyline points='113.37,563.57 113.37,560.83 ' style='stroke-width: 1.07; stroke: #333333; stroke-linecap: butt;' />
<polyline points='152.05,563.57 152.05,560.83 ' style='stroke-width: 1.07; stroke: #333333; stroke-linecap: butt;' />
<polyline points='190.73,563.57 190.73,560.83 ' style='stroke-width: 1.07; stroke: #333333; stroke-linecap: butt;' />
<polyline points='229.41,563.57 229.41,560.83 ' style='stroke-width: 1.07; stroke: #333333; stroke-linecap: butt;' />
<text x='74.69' y='572.06' text-anchor='middle' style='font-size: 8.80px;fill: #4D4D4D; font-family: "Arial";' textLength='4.90px' lengthAdjust='spacingAndGlyphs'>0</text>
<text x='113.37' y='572.06' text-anchor='middle' style='font-size: 8.80px;fill: #4D4D4D; font-family: "Arial";' textLength='12.24px' lengthAdjust='spacingAndGlyphs'>.25</text>
<text x='152.05' y='572.06' text-anchor='middle' style='font-size: 8.80px;fill: #4D4D4D; font-family: "Arial";' textLength='7.34px' lengthAdjust='spacingAndGlyphs'>.5</text>
<text x='190.73' y='572.06' text-anchor='middle' style='font-size: 8.80px;fill: #4D4D4D; font-family: "Arial";' textLength='12.24px' lengthAdjust='spacingAndGlyphs'>.75</text>
<text x='229.41' y='572.06' text-anchor='middle' style='font-size: 8.80px;fill: #4D4D4D; font-family: "Arial";' textLength='4.90px' lengthAdjust='spacingAndGlyphs'>1</text>
<text transform='translate(18.84,505.28) rotate(-90)' text-anchor='middle' style='font-size: 11.00px; font-family: "Arial";' textLength='42.18px' lengthAdjust='spacingAndGlyphs'>Exercise</text>
</g>
<defs>
  <clipPath id='cpNS40OHwyNDIuNjN8NTc5LjM5fDcxNC41Mg=='>
    <rect x='5.48' y='579.39' width='237.15' height='135.13' />
  </clipPath>
</defs>
<g clip-path='url(#cpNS40OHwyNDIuNjN8NTc5LjM5fDcxNC41Mg==)'>
<rect x='5.48' y='579.39' width='237.15' height='135.13' style='stroke-width: 1.07; stroke: #FFFFFF; fill: #FFFFFF;' />
</g>
<g clip-path='url(#cpMC4wMHw0MzIuMDB8MC4wMHw3MjAuMDA=)'>
</g>
<defs>
  <clipPath id='cpNjYuOTZ8MjM3LjE1fDU4NC44N3w2OTUuOTY='>
    <rect x='66.96' y='584.87' width='170.19' height='111.09' />
  </clipPath>
</defs>
<g clip-path='url(#cpNjYuOTZ8MjM3LjE1fDU4NC44N3w2OTUuOTY=)'>
<rect x='66.96' y='584.87' width='170.19' height='111.09' style='stroke-width: 1.07; stroke: none; fill: #FFFFFF;' />
<polyline points='94.03,695.96 94.03,584.87 ' style='stroke-width: 0.53; stroke: #EBEBEB; stroke-linecap: butt;' />
<polyline points='132.71,695.96 132.71,584.87 ' style='stroke-width: 0.53; stroke: #EBEBEB; stroke-linecap: butt;' />
<polyline points='171.39,695.96 171.39,584.87 ' style='stroke-width: 0.53; stroke: #EBEBEB; stroke-linecap: butt;' />
<polyline points='210.07,695.96 210.07,584.87 ' style='stroke-width: 0.53; stroke: #EBEBEB; stroke-linecap: butt;' />
<polyline points='74.69,695.96 74.69,584.87 ' style='stroke-width: 1.07; stroke: #EBEBEB; stroke-linecap: butt;' />
<polyline points='113.37,695.96 113.37,584.87 ' style='stroke-width: 1.07; stroke: #EBEBEB; stroke-linecap: butt;' />
<polyline points='152.05,695.96 152.05,584.87 ' style='stroke-width: 1.07; stroke: #EBEBEB; stroke-linecap: butt;' />
<polyline points='190.73,695.96 190.73,584.87 ' style='stroke-width: 1.07; stroke: #EBEBEB; stroke-linecap: butt;' />
<polyline points='229.41,695.96 229.41,584.87 ' style='stroke-width: 1.07; stroke: #EBEBEB; stroke-linecap: butt;' />
<line x1='74.69' y1='695.96' x2='74.69' y2='584.87' style='stroke-width: 1.07; stroke-linecap: butt;' />
<polygon points='136.73,592.77 154.13,589.92 169.17,592.77 154.13,595.63 136.73,592.77 ' style='stroke-width: 1.07; stroke: #440154; fill: #440154; fill-opacity: 0.33;' />
<polygon points='148.77,611.83 164.58,608.97 177.99,611.83 164.58,614.69 148.77,611.83 ' style='stroke-width: 1.07; stroke: #440154; fill: #440154; fill-opacity: 0.33;' />
<polygon points='117.89,630.89 137.32,628.03 154.65,630.89 137.32,633.74 117.89,630.89 ' style='stroke-width: 1.07; stroke: #440154; fill: #440154; fill-opacity: 0.33;' />
<polygon points='145.24,649.94 161.54,647.08 175.44,649.94 161.54,652.80 145.24,649.94 ' style='stroke-width: 1.07; stroke: #440154; fill: #440154; fill-opacity: 0.33;' />
<polygon points='124.23,669.00 143.04,666.14 159.64,669.00 143.04,671.85 124.23,669.00 ' style='stroke-width: 1.07; stroke: #440154; fill: #440154; fill-opacity: 0.33;' />
<polygon points='117.47,688.05 136.94,685.19 154.32,688.05 136.94,690.91 117.47,688.05 ' style='stroke-width: 1.07; stroke: #440154; fill: #440154; fill-opacity: 0.33;' />
<polygon points='117.53,592.77 137.00,589.92 154.36,592.77 137.00,595.63 117.53,592.77 ' style='stroke-width: 1.07; stroke: #21908C; fill: #21908C; fill-opacity: 0.33;' />
<polygon points='102.13,611.83 122.83,608.97 141.79,611.83 122.83,614.69 102.13,611.83 ' style='stroke-width: 1.07; stroke: #21908C; fill: #21908C; fill-opacity: 0.33;' />
<polygon points='98.42,630.89 119.36,628.03 138.65,630.89 119.36,633.74 98.42,630.89 ' style='stroke-width: 1.07; stroke: #21908C; fill: #21908C; fill-opacity: 0.33;' />
<polygon points='147.39,649.94 163.39,647.08 177.00,649.94 163.39,652.80 147.39,649.94 ' style='stroke-width: 1.07; stroke: #21908C; fill: #21908C; fill-opacity: 0.33;' />
<polygon points='132.57,669.00 150.47,666.14 166.04,669.00 150.47,671.85 132.57,669.00 ' style='stroke-width: 1.07; stroke: #21908C; fill: #21908C; fill-opacity: 0.33;' />
<polygon points='120.36,688.05 139.56,685.19 156.60,688.05 139.56,690.91 120.36,688.05 ' style='stroke-width: 1.07; stroke: #21908C; fill: #21908C; fill-opacity: 0.33;' />
<polygon points='126.44,592.77 143.66,589.92 158.98,592.77 143.66,595.63 126.44,592.77 ' style='stroke-width: 1.07; stroke: #FDE725; fill: #FDE725; fill-opacity: 0.33;' />
<polygon points='106.51,611.83 125.38,608.97 142.70,611.83 125.38,614.69 106.51,611.83 ' style='stroke-width: 1.07; stroke: #FDE725; fill: #FDE725; fill-opacity: 0.33;' />
<polygon points='86.89,630.89 106.79,628.03 125.65,630.89 106.79,633.74 86.89,630.89 ' style='stroke-width: 1.07; stroke: #FDE725; fill: #FDE725; fill-opacity: 0.33;' />
<polygon points='148.45,649.94 163.17,647.08 175.84,649.94 163.17,652.80 148.45,649.94 ' style='stroke-width: 1.07; stroke: #FDE725; fill: #FDE725; fill-opacity: 0.33;' />
<polygon points='114.67,669.00 132.94,666.14 149.49,669.00 132.94,671.85 114.67,669.00 ' style='stroke-width: 1.07; stroke: #FDE725; fill: #FDE725; fill-opacity: 0.33;' />
<polygon points='110.60,688.05 129.18,685.19 146.13,688.05 129.18,690.91 110.60,688.05 ' style='stroke-width: 1.07; stroke: #FDE725; fill: #FDE725; fill-opacity: 0.33;' />
<rect x='66.96' y='584.87' width='170.19' height='111.09' style='stroke-width: 1.07; stroke: #333333;' />
</g>
<g clip-path='url(#cpMC4wMHw0MzIuMDB8MC4wMHw3MjAuMDA=)'>
<text x='62.03' y='595.92' text-anchor='end' style='font-size: 8.80px;fill: #4D4D4D; font-family: "Arial";' textLength='28.38px' lengthAdjust='spacingAndGlyphs'>Att - Int</text>
<text x='62.03' y='614.98' text-anchor='end' style='font-size: 8.80px;fill: #4D4D4D; font-family: "Arial";' textLength='29.84px' lengthAdjust='spacingAndGlyphs'>PN - Int</text>
<text x='62.03' y='634.04' text-anchor='end' style='font-size: 8.80px;fill: #4D4D4D; font-family: "Arial";' textLength='35.70px' lengthAdjust='spacingAndGlyphs'>PBC - Int</text>
<text x='62.03' y='653.09' text-anchor='end' style='font-size: 8.80px;fill: #4D4D4D; font-family: "Arial";' textLength='30.81px' lengthAdjust='spacingAndGlyphs'>Att - PN</text>
<text x='62.03' y='672.15' text-anchor='end' style='font-size: 8.80px;fill: #4D4D4D; font-family: "Arial";' textLength='36.68px' lengthAdjust='spacingAndGlyphs'>Att - PBC</text>
<text x='62.03' y='691.20' text-anchor='end' style='font-size: 8.80px;fill: #4D4D4D; font-family: "Arial";' textLength='38.13px' lengthAdjust='spacingAndGlyphs'>PN - PBC</text>
<polyline points='64.22,592.77 66.96,592.77 ' style='stroke-width: 1.07; stroke: #333333; stroke-linecap: butt;' />
<polyline points='64.22,611.83 66.96,611.83 ' style='stroke-width: 1.07; stroke: #333333; stroke-linecap: butt;' />
<polyline points='64.22,630.89 66.96,630.89 ' style='stroke-width: 1.07; stroke: #333333; stroke-linecap: butt;' />
<polyline points='64.22,649.94 66.96,649.94 ' style='stroke-width: 1.07; stroke: #333333; stroke-linecap: butt;' />
<polyline points='64.22,669.00 66.96,669.00 ' style='stroke-width: 1.07; stroke: #333333; stroke-linecap: butt;' />
<polyline points='64.22,688.05 66.96,688.05 ' style='stroke-width: 1.07; stroke: #333333; stroke-linecap: butt;' />
<polyline points='74.69,698.70 74.69,695.96 ' style='stroke-width: 1.07; stroke: #333333; stroke-linecap: butt;' />
<polyline points='113.37,698.70 113.37,695.96 ' style='stroke-width: 1.07; stroke: #333333; stroke-linecap: butt;' />
<polyline points='152.05,698.70 152.05,695.96 ' style='stroke-width: 1.07; stroke: #333333; stroke-linecap: butt;' />
<polyline points='190.73,698.70 190.73,695.96 ' style='stroke-width: 1.07; stroke: #333333; stroke-linecap: butt;' />
<polyline points='229.41,698.70 229.41,695.96 ' style='stroke-width: 1.07; stroke: #333333; stroke-linecap: butt;' />
<text x='74.69' y='707.19' text-anchor='middle' style='font-size: 8.80px;fill: #4D4D4D; font-family: "Arial";' textLength='4.90px' lengthAdjust='spacingAndGlyphs'>0</text>
<text x='113.37' y='707.19' text-anchor='middle' style='font-size: 8.80px;fill: #4D4D4D; font-family: "Arial";' textLength='12.24px' lengthAdjust='spacingAndGlyphs'>.25</text>
<text x='152.05' y='707.19' text-anchor='middle' style='font-size: 8.80px;fill: #4D4D4D; font-family: "Arial";' textLength='7.34px' lengthAdjust='spacingAndGlyphs'>.5</text>
<text x='190.73' y='707.19' text-anchor='middle' style='font-size: 8.80px;fill: #4D4D4D; font-family: "Arial";' textLength='12.24px' lengthAdjust='spacingAndGlyphs'>.75</text>
<text x='229.41' y='707.19' text-anchor='middle' style='font-size: 8.80px;fill: #4D4D4D; font-family: "Arial";' textLength='4.90px' lengthAdjust='spacingAndGlyphs'>1</text>
<text transform='translate(18.84,640.41) rotate(-90)' text-anchor='middle' style='font-size: 11.00px; font-family: "Arial";' textLength='46.49px' lengthAdjust='spacingAndGlyphs'>Marathon</text>
</g>
<defs>
  <clipPath id='cpMjQyLjYzfDQyNi41MnwzOC44NXwxNzMuOTk='>
    <rect x='242.63' y='38.85' width='183.89' height='135.13' />
  </clipPath>
</defs>
<g clip-path='url(#cpMjQyLjYzfDQyNi41MnwzOC44NXwxNzMuOTk=)'>
<rect x='242.63' y='38.85' width='183.89' height='135.13' style='stroke-width: 1.07; stroke: #FFFFFF; fill: #FFFFFF;' />
</g>
<g clip-path='url(#cpMC4wMHw0MzIuMDB8MC4wMHw3MjAuMDA=)'>
</g>
<defs>
  <clipPath id='cpMjUwLjg1fDQyMS4wNHw0NC4zM3wxNTUuNDI='>
    <rect x='250.85' y='44.33' width='170.19' height='111.09' />
  </clipPath>
</defs>
<g clip-path='url(#cpMjUwLjg1fDQyMS4wNHw0NC4zM3wxNTUuNDI=)'>
<rect x='250.85' y='44.33' width='170.19' height='111.09' style='stroke-width: 1.07; stroke: none; fill: #FFFFFF;' />
<polyline points='268.25,155.42 268.25,44.33 ' style='stroke-width: 0.53; stroke: #EBEBEB; stroke-linecap: butt;' />
<polyline points='287.59,155.42 287.59,44.33 ' style='stroke-width: 0.53; stroke: #EBEBEB; stroke-linecap: butt;' />
<polyline points='306.93,155.42 306.93,44.33 ' style='stroke-width: 0.53; stroke: #EBEBEB; stroke-linecap: butt;' />
<polyline points='326.27,155.42 326.27,44.33 ' style='stroke-width: 0.53; stroke: #EBEBEB; stroke-linecap: butt;' />
<polyline points='345.61,155.42 345.61,44.33 ' style='stroke-width: 0.53; stroke: #EBEBEB; stroke-linecap: butt;' />
<polyline points='364.95,155.42 364.95,44.33 ' style='stroke-width: 0.53; stroke: #EBEBEB; stroke-linecap: butt;' />
<polyline points='384.29,155.42 384.29,44.33 ' style='stroke-width: 0.53; stroke: #EBEBEB; stroke-linecap: butt;' />
<polyline points='403.63,155.42 403.63,44.33 ' style='stroke-width: 0.53; stroke: #EBEBEB; stroke-linecap: butt;' />
<polyline points='258.58,155.42 258.58,44.33 ' style='stroke-width: 1.07; stroke: #EBEBEB; stroke-linecap: butt;' />
<polyline points='277.92,155.42 277.92,44.33 ' style='stroke-width: 1.07; stroke: #EBEBEB; stroke-linecap: butt;' />
<polyline points='297.26,155.42 297.26,44.33 ' style='stroke-width: 1.07; stroke: #EBEBEB; stroke-linecap: butt;' />
<polyline points='316.60,155.42 316.60,44.33 ' style='stroke-width: 1.07; stroke: #EBEBEB; stroke-linecap: butt;' />
<polyline points='335.94,155.42 335.94,44.33 ' style='stroke-width: 1.07; stroke: #EBEBEB; stroke-linecap: butt;' />
<polyline points='355.28,155.42 355.28,44.33 ' style='stroke-width: 1.07; stroke: #EBEBEB; stroke-linecap: butt;' />
<polyline points='374.62,155.42 374.62,44.33 ' style='stroke-width: 1.07; stroke: #EBEBEB; stroke-linecap: butt;' />
<polyline points='393.96,155.42 393.96,44.33 ' style='stroke-width: 1.07; stroke: #EBEBEB; stroke-linecap: butt;' />
<polyline points='413.31,155.42 413.31,44.33 ' style='stroke-width: 1.07; stroke: #EBEBEB; stroke-linecap: butt;' />
<line x1='335.94' y1='155.42' x2='335.94' y2='44.33' style='stroke-width: 1.07; stroke-linecap: butt;' />
<polygon points='315.65,52.24 335.36,49.38 355.08,52.24 335.36,55.10 315.65,52.24 ' style='stroke-width: 1.07; fill: #000000;' />
<polygon points='326.16,71.29 345.88,68.44 365.59,71.29 345.88,74.15 326.16,71.29 ' style='stroke-width: 1.07; fill: #000000;' />
<polygon points='319.38,90.35 339.09,87.49 358.81,90.35 339.09,93.21 319.38,90.35 ' style='stroke-width: 1.07; fill: #000000;' />
<polygon points='326.24,109.41 345.96,106.55 365.67,109.41 345.96,112.26 326.24,109.41 ' style='stroke-width: 1.07; fill: #000000;' />
<polygon points='323.35,128.46 343.07,125.60 362.78,128.46 343.07,131.32 323.35,128.46 ' style='stroke-width: 1.07; fill: #000000;' />
<polygon points='315.83,147.52 335.55,144.66 355.27,147.52 335.55,150.37 315.83,147.52 ' style='stroke-width: 1.07; fill: #000000;' />
<rect x='250.85' y='44.33' width='170.19' height='111.09' style='stroke-width: 1.07; stroke: #333333;' />
</g>
<g clip-path='url(#cpMC4wMHw0MzIuMDB8MC4wMHw3MjAuMDA=)'>
<polyline points='248.11,52.24 250.85,52.24 ' style='stroke-width: 1.07; stroke: #333333; stroke-linecap: butt;' />
<polyline points='248.11,71.29 250.85,71.29 ' style='stroke-width: 1.07; stroke: #333333; stroke-linecap: butt;' />
<polyline points='248.11,90.35 250.85,90.35 ' style='stroke-width: 1.07; stroke: #333333; stroke-linecap: butt;' />
<polyline points='248.11,109.41 250.85,109.41 ' style='stroke-width: 1.07; stroke: #333333; stroke-linecap: butt;' />
<polyline points='248.11,128.46 250.85,128.46 ' style='stroke-width: 1.07; stroke: #333333; stroke-linecap: butt;' />
<polyline points='248.11,147.52 250.85,147.52 ' style='stroke-width: 1.07; stroke: #333333; stroke-linecap: butt;' />
<polyline points='258.58,158.16 258.58,155.42 ' style='stroke-width: 1.07; stroke: #333333; stroke-linecap: butt;' />
<polyline points='277.92,158.16 277.92,155.42 ' style='stroke-width: 1.07; stroke: #333333; stroke-linecap: butt;' />
<polyline points='297.26,158.16 297.26,155.42 ' style='stroke-width: 1.07; stroke: #333333; stroke-linecap: butt;' />
<polyline points='316.60,158.16 316.60,155.42 ' style='stroke-width: 1.07; stroke: #333333; stroke-linecap: butt;' />
<polyline points='335.94,158.16 335.94,155.42 ' style='stroke-width: 1.07; stroke: #333333; stroke-linecap: butt;' />
<polyline points='355.28,158.16 355.28,155.42 ' style='stroke-width: 1.07; stroke: #333333; stroke-linecap: butt;' />
<polyline points='374.62,158.16 374.62,155.42 ' style='stroke-width: 1.07; stroke: #333333; stroke-linecap: butt;' />
<polyline points='393.96,158.16 393.96,155.42 ' style='stroke-width: 1.07; stroke: #333333; stroke-linecap: butt;' />
<polyline points='413.31,158.16 413.31,155.42 ' style='stroke-width: 1.07; stroke: #333333; stroke-linecap: butt;' />
<text x='258.58' y='166.66' text-anchor='middle' style='font-size: 8.80px;fill: #4D4D4D; font-family: "Arial";' textLength='7.83px' lengthAdjust='spacingAndGlyphs'>-1</text>
<text x='277.92' y='166.66' text-anchor='middle' style='font-size: 8.80px;fill: #4D4D4D; font-family: "Arial";' textLength='15.17px' lengthAdjust='spacingAndGlyphs'>-.75</text>
<text x='297.26' y='166.66' text-anchor='middle' style='font-size: 8.80px;fill: #4D4D4D; font-family: "Arial";' textLength='10.27px' lengthAdjust='spacingAndGlyphs'>-.5</text>
<text x='316.60' y='166.66' text-anchor='middle' style='font-size: 8.80px;fill: #4D4D4D; font-family: "Arial";' textLength='15.17px' lengthAdjust='spacingAndGlyphs'>-.25</text>
<text x='335.94' y='166.66' text-anchor='middle' style='font-size: 8.80px;fill: #4D4D4D; font-family: "Arial";' textLength='4.90px' lengthAdjust='spacingAndGlyphs'>0</text>
<text x='355.28' y='166.66' text-anchor='middle' style='font-size: 8.80px;fill: #4D4D4D; font-family: "Arial";' textLength='12.24px' lengthAdjust='spacingAndGlyphs'>.25</text>
<text x='374.62' y='166.66' text-anchor='middle' style='font-size: 8.80px;fill: #4D4D4D; font-family: "Arial";' textLength='7.34px' lengthAdjust='spacingAndGlyphs'>.5</text>
<text x='393.96' y='166.66' text-anchor='middle' style='font-size: 8.80px;fill: #4D4D4D; font-family: "Arial";' textLength='12.24px' lengthAdjust='spacingAndGlyphs'>.75</text>
<text x='413.31' y='166.66' text-anchor='middle' style='font-size: 8.80px;fill: #4D4D4D; font-family: "Arial";' textLength='4.90px' lengthAdjust='spacingAndGlyphs'>1</text>
</g>
<defs>
  <clipPath id='cpMjQyLjYzfDQyNi41MnwxNzMuOTl8MzA5LjEy'>
    <rect x='242.63' y='173.99' width='183.89' height='135.13' />
  </clipPath>
</defs>
<g clip-path='url(#cpMjQyLjYzfDQyNi41MnwxNzMuOTl8MzA5LjEy)'>
<rect x='242.63' y='173.99' width='183.89' height='135.13' style='stroke-width: 1.07; stroke: #FFFFFF; fill: #FFFFFF;' />
</g>
<g clip-path='url(#cpMC4wMHw0MzIuMDB8MC4wMHw3MjAuMDA=)'>
</g>
<defs>
  <clipPath id='cpMjUwLjg1fDQyMS4wNHwxNzkuNDd8MjkwLjU2'>
    <rect x='250.85' y='179.47' width='170.19' height='111.09' />
  </clipPath>
</defs>
<g clip-path='url(#cpMjUwLjg1fDQyMS4wNHwxNzkuNDd8MjkwLjU2)'>
<rect x='250.85' y='179.47' width='170.19' height='111.09' style='stroke-width: 1.07; stroke: none; fill: #FFFFFF;' />
<polyline points='268.25,290.56 268.25,179.47 ' style='stroke-width: 0.53; stroke: #EBEBEB; stroke-linecap: butt;' />
<polyline points='287.59,290.56 287.59,179.47 ' style='stroke-width: 0.53; stroke: #EBEBEB; stroke-linecap: butt;' />
<polyline points='306.93,290.56 306.93,179.47 ' style='stroke-width: 0.53; stroke: #EBEBEB; stroke-linecap: butt;' />
<polyline points='326.27,290.56 326.27,179.47 ' style='stroke-width: 0.53; stroke: #EBEBEB; stroke-linecap: butt;' />
<polyline points='345.61,290.56 345.61,179.47 ' style='stroke-width: 0.53; stroke: #EBEBEB; stroke-linecap: butt;' />
<polyline points='364.95,290.56 364.95,179.47 ' style='stroke-width: 0.53; stroke: #EBEBEB; stroke-linecap: butt;' />
<polyline points='384.29,290.56 384.29,179.47 ' style='stroke-width: 0.53; stroke: #EBEBEB; stroke-linecap: butt;' />
<polyline points='403.63,290.56 403.63,179.47 ' style='stroke-width: 0.53; stroke: #EBEBEB; stroke-linecap: butt;' />
<polyline points='258.58,290.56 258.58,179.47 ' style='stroke-width: 1.07; stroke: #EBEBEB; stroke-linecap: butt;' />
<polyline points='277.92,290.56 277.92,179.47 ' style='stroke-width: 1.07; stroke: #EBEBEB; stroke-linecap: butt;' />
<polyline points='297.26,290.56 297.26,179.47 ' style='stroke-width: 1.07; stroke: #EBEBEB; stroke-linecap: butt;' />
<polyline points='316.60,290.56 316.60,179.47 ' style='stroke-width: 1.07; stroke: #EBEBEB; stroke-linecap: butt;' />
<polyline points='335.94,290.56 335.94,179.47 ' style='stroke-width: 1.07; stroke: #EBEBEB; stroke-linecap: butt;' />
<polyline points='355.28,290.56 355.28,179.47 ' style='stroke-width: 1.07; stroke: #EBEBEB; stroke-linecap: butt;' />
<polyline points='374.62,290.56 374.62,179.47 ' style='stroke-width: 1.07; stroke: #EBEBEB; stroke-linecap: butt;' />
<polyline points='393.96,290.56 393.96,179.47 ' style='stroke-width: 1.07; stroke: #EBEBEB; stroke-linecap: butt;' />
<polyline points='413.31,290.56 413.31,179.47 ' style='stroke-width: 1.07; stroke: #EBEBEB; stroke-linecap: butt;' />
<line x1='335.94' y1='290.56' x2='335.94' y2='179.47' style='stroke-width: 1.07; stroke-linecap: butt;' />
<polygon points='315.92,187.37 335.60,184.51 355.28,187.37 335.60,190.23 315.92,187.37 ' style='stroke-width: 1.07; fill: #000000;' />
<polygon points='310.30,206.43 329.98,203.57 349.66,206.43 329.98,209.29 310.30,206.43 ' style='stroke-width: 1.07; fill: #000000;' />
<polygon points='311.07,225.48 330.76,222.63 350.44,225.48 330.76,228.34 311.07,225.48 ' style='stroke-width: 1.07; fill: #000000;' />
<polygon points='295.10,244.54 314.78,241.68 334.46,244.54 314.78,247.40 295.10,244.54 ' style='stroke-width: 1.07; fill: #000000;' />
<polygon points='308.63,263.59 328.31,260.74 348.00,263.59 328.31,266.45 308.63,263.59 ' style='stroke-width: 1.07; fill: #000000;' />
<polygon points='300.19,282.65 319.87,279.79 339.56,282.65 319.87,285.51 300.19,282.65 ' style='stroke-width: 1.07; fill: #000000;' />
<rect x='250.85' y='179.47' width='170.19' height='111.09' style='stroke-width: 1.07; stroke: #333333;' />
</g>
<g clip-path='url(#cpMC4wMHw0MzIuMDB8MC4wMHw3MjAuMDA=)'>
<polyline points='248.11,187.37 250.85,187.37 ' style='stroke-width: 1.07; stroke: #333333; stroke-linecap: butt;' />
<polyline points='248.11,206.43 250.85,206.43 ' style='stroke-width: 1.07; stroke: #333333; stroke-linecap: butt;' />
<polyline points='248.11,225.48 250.85,225.48 ' style='stroke-width: 1.07; stroke: #333333; stroke-linecap: butt;' />
<polyline points='248.11,244.54 250.85,244.54 ' style='stroke-width: 1.07; stroke: #333333; stroke-linecap: butt;' />
<polyline points='248.11,263.59 250.85,263.59 ' style='stroke-width: 1.07; stroke: #333333; stroke-linecap: butt;' />
<polyline points='248.11,282.65 250.85,282.65 ' style='stroke-width: 1.07; stroke: #333333; stroke-linecap: butt;' />
<polyline points='258.58,293.30 258.58,290.56 ' style='stroke-width: 1.07; stroke: #333333; stroke-linecap: butt;' />
<polyline points='277.92,293.30 277.92,290.56 ' style='stroke-width: 1.07; stroke: #333333; stroke-linecap: butt;' />
<polyline points='297.26,293.30 297.26,290.56 ' style='stroke-width: 1.07; stroke: #333333; stroke-linecap: butt;' />
<polyline points='316.60,293.30 316.60,290.56 ' style='stroke-width: 1.07; stroke: #333333; stroke-linecap: butt;' />
<polyline points='335.94,293.30 335.94,290.56 ' style='stroke-width: 1.07; stroke: #333333; stroke-linecap: butt;' />
<polyline points='355.28,293.30 355.28,290.56 ' style='stroke-width: 1.07; stroke: #333333; stroke-linecap: butt;' />
<polyline points='374.62,293.30 374.62,290.56 ' style='stroke-width: 1.07; stroke: #333333; stroke-linecap: butt;' />
<polyline points='393.96,293.30 393.96,290.56 ' style='stroke-width: 1.07; stroke: #333333; stroke-linecap: butt;' />
<polyline points='413.31,293.30 413.31,290.56 ' style='stroke-width: 1.07; stroke: #333333; stroke-linecap: butt;' />
<text x='258.58' y='301.79' text-anchor='middle' style='font-size: 8.80px;fill: #4D4D4D; font-family: "Arial";' textLength='7.83px' lengthAdjust='spacingAndGlyphs'>-1</text>
<text x='277.92' y='301.79' text-anchor='middle' style='font-size: 8.80px;fill: #4D4D4D; font-family: "Arial";' textLength='15.17px' lengthAdjust='spacingAndGlyphs'>-.75</text>
<text x='297.26' y='301.79' text-anchor='middle' style='font-size: 8.80px;fill: #4D4D4D; font-family: "Arial";' textLength='10.27px' lengthAdjust='spacingAndGlyphs'>-.5</text>
<text x='316.60' y='301.79' text-anchor='middle' style='font-size: 8.80px;fill: #4D4D4D; font-family: "Arial";' textLength='15.17px' lengthAdjust='spacingAndGlyphs'>-.25</text>
<text x='335.94' y='301.79' text-anchor='middle' style='font-size: 8.80px;fill: #4D4D4D; font-family: "Arial";' textLength='4.90px' lengthAdjust='spacingAndGlyphs'>0</text>
<text x='355.28' y='301.79' text-anchor='middle' style='font-size: 8.80px;fill: #4D4D4D; font-family: "Arial";' textLength='12.24px' lengthAdjust='spacingAndGlyphs'>.25</text>
<text x='374.62' y='301.79' text-anchor='middle' style='font-size: 8.80px;fill: #4D4D4D; font-family: "Arial";' textLength='7.34px' lengthAdjust='spacingAndGlyphs'>.5</text>
<text x='393.96' y='301.79' text-anchor='middle' style='font-size: 8.80px;fill: #4D4D4D; font-family: "Arial";' textLength='12.24px' lengthAdjust='spacingAndGlyphs'>.75</text>
<text x='413.31' y='301.79' text-anchor='middle' style='font-size: 8.80px;fill: #4D4D4D; font-family: "Arial";' textLength='4.90px' lengthAdjust='spacingAndGlyphs'>1</text>
</g>
<defs>
  <clipPath id='cpMjQyLjYzfDQyNi41MnwzMDkuMTJ8NDQ0LjI1'>
    <rect x='242.63' y='309.12' width='183.89' height='135.13' />
  </clipPath>
</defs>
<g clip-path='url(#cpMjQyLjYzfDQyNi41MnwzMDkuMTJ8NDQ0LjI1)'>
<rect x='242.63' y='309.12' width='183.89' height='135.13' style='stroke-width: 1.07; stroke: #FFFFFF; fill: #FFFFFF;' />
</g>
<g clip-path='url(#cpMC4wMHw0MzIuMDB8MC4wMHw3MjAuMDA=)'>
</g>
<defs>
  <clipPath id='cpMjUwLjg1fDQyMS4wNHwzMTQuNjB8NDI1LjY5'>
    <rect x='250.85' y='314.60' width='170.19' height='111.09' />
  </clipPath>
</defs>
<g clip-path='url(#cpMjUwLjg1fDQyMS4wNHwzMTQuNjB8NDI1LjY5)'>
<rect x='250.85' y='314.60' width='170.19' height='111.09' style='stroke-width: 1.07; stroke: none; fill: #FFFFFF;' />
<polyline points='268.25,425.69 268.25,314.60 ' style='stroke-width: 0.53; stroke: #EBEBEB; stroke-linecap: butt;' />
<polyline points='287.59,425.69 287.59,314.60 ' style='stroke-width: 0.53; stroke: #EBEBEB; stroke-linecap: butt;' />
<polyline points='306.93,425.69 306.93,314.60 ' style='stroke-width: 0.53; stroke: #EBEBEB; stroke-linecap: butt;' />
<polyline points='326.27,425.69 326.27,314.60 ' style='stroke-width: 0.53; stroke: #EBEBEB; stroke-linecap: butt;' />
<polyline points='345.61,425.69 345.61,314.60 ' style='stroke-width: 0.53; stroke: #EBEBEB; stroke-linecap: butt;' />
<polyline points='364.95,425.69 364.95,314.60 ' style='stroke-width: 0.53; stroke: #EBEBEB; stroke-linecap: butt;' />
<polyline points='384.29,425.69 384.29,314.60 ' style='stroke-width: 0.53; stroke: #EBEBEB; stroke-linecap: butt;' />
<polyline points='403.63,425.69 403.63,314.60 ' style='stroke-width: 0.53; stroke: #EBEBEB; stroke-linecap: butt;' />
<polyline points='258.58,425.69 258.58,314.60 ' style='stroke-width: 1.07; stroke: #EBEBEB; stroke-linecap: butt;' />
<polyline points='277.92,425.69 277.92,314.60 ' style='stroke-width: 1.07; stroke: #EBEBEB; stroke-linecap: butt;' />
<polyline points='297.26,425.69 297.26,314.60 ' style='stroke-width: 1.07; stroke: #EBEBEB; stroke-linecap: butt;' />
<polyline points='316.60,425.69 316.60,314.60 ' style='stroke-width: 1.07; stroke: #EBEBEB; stroke-linecap: butt;' />
<polyline points='335.94,425.69 335.94,314.60 ' style='stroke-width: 1.07; stroke: #EBEBEB; stroke-linecap: butt;' />
<polyline points='355.28,425.69 355.28,314.60 ' style='stroke-width: 1.07; stroke: #EBEBEB; stroke-linecap: butt;' />
<polyline points='374.62,425.69 374.62,314.60 ' style='stroke-width: 1.07; stroke: #EBEBEB; stroke-linecap: butt;' />
<polyline points='393.96,425.69 393.96,314.60 ' style='stroke-width: 1.07; stroke: #EBEBEB; stroke-linecap: butt;' />
<polyline points='413.31,425.69 413.31,314.60 ' style='stroke-width: 1.07; stroke: #EBEBEB; stroke-linecap: butt;' />
<line x1='335.94' y1='425.69' x2='335.94' y2='314.60' style='stroke-width: 1.07; stroke-linecap: butt;' />
<polygon points='326.47,322.51 346.16,319.65 365.84,322.51 346.16,325.37 326.47,322.51 ' style='stroke-width: 1.07; fill: #000000;' />
<polygon points='341.83,341.56 361.52,338.70 381.20,341.56 361.52,344.42 341.83,341.56 ' style='stroke-width: 1.07; fill: #000000;' />
<polygon points='343.85,360.62 363.53,357.76 383.22,360.62 363.53,363.48 343.85,360.62 ' style='stroke-width: 1.07; fill: #000000;' />
<polygon points='341.09,379.67 360.77,376.81 380.45,379.67 360.77,382.53 341.09,379.67 ' style='stroke-width: 1.07; fill: #000000;' />
<polygon points='294.33,398.73 314.01,395.87 333.69,398.73 314.01,401.59 294.33,398.73 ' style='stroke-width: 1.07; fill: #000000;' />
<polygon points='322.77,417.78 342.45,414.93 362.13,417.78 342.45,420.64 322.77,417.78 ' style='stroke-width: 1.07; fill: #000000;' />
<rect x='250.85' y='314.60' width='170.19' height='111.09' style='stroke-width: 1.07; stroke: #333333;' />
</g>
<g clip-path='url(#cpMC4wMHw0MzIuMDB8MC4wMHw3MjAuMDA=)'>
<polyline points='248.11,322.51 250.85,322.51 ' style='stroke-width: 1.07; stroke: #333333; stroke-linecap: butt;' />
<polyline points='248.11,341.56 250.85,341.56 ' style='stroke-width: 1.07; stroke: #333333; stroke-linecap: butt;' />
<polyline points='248.11,360.62 250.85,360.62 ' style='stroke-width: 1.07; stroke: #333333; stroke-linecap: butt;' />
<polyline points='248.11,379.67 250.85,379.67 ' style='stroke-width: 1.07; stroke: #333333; stroke-linecap: butt;' />
<polyline points='248.11,398.73 250.85,398.73 ' style='stroke-width: 1.07; stroke: #333333; stroke-linecap: butt;' />
<polyline points='248.11,417.78 250.85,417.78 ' style='stroke-width: 1.07; stroke: #333333; stroke-linecap: butt;' />
<polyline points='258.58,428.43 258.58,425.69 ' style='stroke-width: 1.07; stroke: #333333; stroke-linecap: butt;' />
<polyline points='277.92,428.43 277.92,425.69 ' style='stroke-width: 1.07; stroke: #333333; stroke-linecap: butt;' />
<polyline points='297.26,428.43 297.26,425.69 ' style='stroke-width: 1.07; stroke: #333333; stroke-linecap: butt;' />
<polyline points='316.60,428.43 316.60,425.69 ' style='stroke-width: 1.07; stroke: #333333; stroke-linecap: butt;' />
<polyline points='335.94,428.43 335.94,425.69 ' style='stroke-width: 1.07; stroke: #333333; stroke-linecap: butt;' />
<polyline points='355.28,428.43 355.28,425.69 ' style='stroke-width: 1.07; stroke: #333333; stroke-linecap: butt;' />
<polyline points='374.62,428.43 374.62,425.69 ' style='stroke-width: 1.07; stroke: #333333; stroke-linecap: butt;' />
<polyline points='393.96,428.43 393.96,425.69 ' style='stroke-width: 1.07; stroke: #333333; stroke-linecap: butt;' />
<polyline points='413.31,428.43 413.31,425.69 ' style='stroke-width: 1.07; stroke: #333333; stroke-linecap: butt;' />
<text x='258.58' y='436.92' text-anchor='middle' style='font-size: 8.80px;fill: #4D4D4D; font-family: "Arial";' textLength='7.83px' lengthAdjust='spacingAndGlyphs'>-1</text>
<text x='277.92' y='436.92' text-anchor='middle' style='font-size: 8.80px;fill: #4D4D4D; font-family: "Arial";' textLength='15.17px' lengthAdjust='spacingAndGlyphs'>-.75</text>
<text x='297.26' y='436.92' text-anchor='middle' style='font-size: 8.80px;fill: #4D4D4D; font-family: "Arial";' textLength='10.27px' lengthAdjust='spacingAndGlyphs'>-.5</text>
<text x='316.60' y='436.92' text-anchor='middle' style='font-size: 8.80px;fill: #4D4D4D; font-family: "Arial";' textLength='15.17px' lengthAdjust='spacingAndGlyphs'>-.25</text>
<text x='335.94' y='436.92' text-anchor='middle' style='font-size: 8.80px;fill: #4D4D4D; font-family: "Arial";' textLength='4.90px' lengthAdjust='spacingAndGlyphs'>0</text>
<text x='355.28' y='436.92' text-anchor='middle' style='font-size: 8.80px;fill: #4D4D4D; font-family: "Arial";' textLength='12.24px' lengthAdjust='spacingAndGlyphs'>.25</text>
<text x='374.62' y='436.92' text-anchor='middle' style='font-size: 8.80px;fill: #4D4D4D; font-family: "Arial";' textLength='7.34px' lengthAdjust='spacingAndGlyphs'>.5</text>
<text x='393.96' y='436.92' text-anchor='middle' style='font-size: 8.80px;fill: #4D4D4D; font-family: "Arial";' textLength='12.24px' lengthAdjust='spacingAndGlyphs'>.75</text>
<text x='413.31' y='436.92' text-anchor='middle' style='font-size: 8.80px;fill: #4D4D4D; font-family: "Arial";' textLength='4.90px' lengthAdjust='spacingAndGlyphs'>1</text>
</g>
<defs>
  <clipPath id='cpMjQyLjYzfDQyNi41Mnw0NDQuMjV8NTc5LjM5'>
    <rect x='242.63' y='444.25' width='183.89' height='135.13' />
  </clipPath>
</defs>
<g clip-path='url(#cpMjQyLjYzfDQyNi41Mnw0NDQuMjV8NTc5LjM5)'>
<rect x='242.63' y='444.25' width='183.89' height='135.13' style='stroke-width: 1.07; stroke: #FFFFFF; fill: #FFFFFF;' />
</g>
<g clip-path='url(#cpMC4wMHw0MzIuMDB8MC4wMHw3MjAuMDA=)'>
</g>
<defs>
  <clipPath id='cpMjUwLjg1fDQyMS4wNHw0NDkuNzN8NTYwLjgz'>
    <rect x='250.85' y='449.73' width='170.19' height='111.09' />
  </clipPath>
</defs>
<g clip-path='url(#cpMjUwLjg1fDQyMS4wNHw0NDkuNzN8NTYwLjgz)'>
<rect x='250.85' y='449.73' width='170.19' height='111.09' style='stroke-width: 1.07; stroke: none; fill: #FFFFFF;' />
<polyline points='268.25,560.83 268.25,449.73 ' style='stroke-width: 0.53; stroke: #EBEBEB; stroke-linecap: butt;' />
<polyline points='287.59,560.83 287.59,449.73 ' style='stroke-width: 0.53; stroke: #EBEBEB; stroke-linecap: butt;' />
<polyline points='306.93,560.83 306.93,449.73 ' style='stroke-width: 0.53; stroke: #EBEBEB; stroke-linecap: butt;' />
<polyline points='326.27,560.83 326.27,449.73 ' style='stroke-width: 0.53; stroke: #EBEBEB; stroke-linecap: butt;' />
<polyline points='345.61,560.83 345.61,449.73 ' style='stroke-width: 0.53; stroke: #EBEBEB; stroke-linecap: butt;' />
<polyline points='364.95,560.83 364.95,449.73 ' style='stroke-width: 0.53; stroke: #EBEBEB; stroke-linecap: butt;' />
<polyline points='384.29,560.83 384.29,449.73 ' style='stroke-width: 0.53; stroke: #EBEBEB; stroke-linecap: butt;' />
<polyline points='403.63,560.83 403.63,449.73 ' style='stroke-width: 0.53; stroke: #EBEBEB; stroke-linecap: butt;' />
<polyline points='258.58,560.83 258.58,449.73 ' style='stroke-width: 1.07; stroke: #EBEBEB; stroke-linecap: butt;' />
<polyline points='277.92,560.83 277.92,449.73 ' style='stroke-width: 1.07; stroke: #EBEBEB; stroke-linecap: butt;' />
<polyline points='297.26,560.83 297.26,449.73 ' style='stroke-width: 1.07; stroke: #EBEBEB; stroke-linecap: butt;' />
<polyline points='316.60,560.83 316.60,449.73 ' style='stroke-width: 1.07; stroke: #EBEBEB; stroke-linecap: butt;' />
<polyline points='335.94,560.83 335.94,449.73 ' style='stroke-width: 1.07; stroke: #EBEBEB; stroke-linecap: butt;' />
<polyline points='355.28,560.83 355.28,449.73 ' style='stroke-width: 1.07; stroke: #EBEBEB; stroke-linecap: butt;' />
<polyline points='374.62,560.83 374.62,449.73 ' style='stroke-width: 1.07; stroke: #EBEBEB; stroke-linecap: butt;' />
<polyline points='393.96,560.83 393.96,449.73 ' style='stroke-width: 1.07; stroke: #EBEBEB; stroke-linecap: butt;' />
<polyline points='413.31,560.83 413.31,449.73 ' style='stroke-width: 1.07; stroke: #EBEBEB; stroke-linecap: butt;' />
<line x1='335.94' y1='560.83' x2='335.94' y2='449.73' style='stroke-width: 1.07; stroke-linecap: butt;' />
<polygon points='320.67,457.64 340.38,454.78 360.10,457.64 340.38,460.50 320.67,457.64 ' style='stroke-width: 1.07; fill: #000000;' />
<polygon points='312.29,476.70 331.97,473.84 351.66,476.70 331.97,479.55 312.29,476.70 ' style='stroke-width: 1.07; fill: #000000;' />
<polygon points='305.59,495.75 325.30,492.89 345.02,495.75 325.30,498.61 305.59,495.75 ' style='stroke-width: 1.07; fill: #000000;' />
<polygon points='317.99,514.81 337.67,511.95 357.36,514.81 337.67,517.67 317.99,514.81 ' style='stroke-width: 1.07; fill: #000000;' />
<polygon points='301.66,533.86 321.37,531.00 341.09,533.86 321.37,536.72 301.66,533.86 ' style='stroke-width: 1.07; fill: #000000;' />
<polygon points='301.88,552.92 321.59,550.06 341.31,552.92 321.59,555.78 301.88,552.92 ' style='stroke-width: 1.07; fill: #000000;' />
<rect x='250.85' y='449.73' width='170.19' height='111.09' style='stroke-width: 1.07; stroke: #333333;' />
</g>
<g clip-path='url(#cpMC4wMHw0MzIuMDB8MC4wMHw3MjAuMDA=)'>
<polyline points='248.11,457.64 250.85,457.64 ' style='stroke-width: 1.07; stroke: #333333; stroke-linecap: butt;' />
<polyline points='248.11,476.70 250.85,476.70 ' style='stroke-width: 1.07; stroke: #333333; stroke-linecap: butt;' />
<polyline points='248.11,495.75 250.85,495.75 ' style='stroke-width: 1.07; stroke: #333333; stroke-linecap: butt;' />
<polyline points='248.11,514.81 250.85,514.81 ' style='stroke-width: 1.07; stroke: #333333; stroke-linecap: butt;' />
<polyline points='248.11,533.86 250.85,533.86 ' style='stroke-width: 1.07; stroke: #333333; stroke-linecap: butt;' />
<polyline points='248.11,552.92 250.85,552.92 ' style='stroke-width: 1.07; stroke: #333333; stroke-linecap: butt;' />
<polyline points='258.58,563.57 258.58,560.83 ' style='stroke-width: 1.07; stroke: #333333; stroke-linecap: butt;' />
<polyline points='277.92,563.57 277.92,560.83 ' style='stroke-width: 1.07; stroke: #333333; stroke-linecap: butt;' />
<polyline points='297.26,563.57 297.26,560.83 ' style='stroke-width: 1.07; stroke: #333333; stroke-linecap: butt;' />
<polyline points='316.60,563.57 316.60,560.83 ' style='stroke-width: 1.07; stroke: #333333; stroke-linecap: butt;' />
<polyline points='335.94,563.57 335.94,560.83 ' style='stroke-width: 1.07; stroke: #333333; stroke-linecap: butt;' />
<polyline points='355.28,563.57 355.28,560.83 ' style='stroke-width: 1.07; stroke: #333333; stroke-linecap: butt;' />
<polyline points='374.62,563.57 374.62,560.83 ' style='stroke-width: 1.07; stroke: #333333; stroke-linecap: butt;' />
<polyline points='393.96,563.57 393.96,560.83 ' style='stroke-width: 1.07; stroke: #333333; stroke-linecap: butt;' />
<polyline points='413.31,563.57 413.31,560.83 ' style='stroke-width: 1.07; stroke: #333333; stroke-linecap: butt;' />
<text x='258.58' y='572.06' text-anchor='middle' style='font-size: 8.80px;fill: #4D4D4D; font-family: "Arial";' textLength='7.83px' lengthAdjust='spacingAndGlyphs'>-1</text>
<text x='277.92' y='572.06' text-anchor='middle' style='font-size: 8.80px;fill: #4D4D4D; font-family: "Arial";' textLength='15.17px' lengthAdjust='spacingAndGlyphs'>-.75</text>
<text x='297.26' y='572.06' text-anchor='middle' style='font-size: 8.80px;fill: #4D4D4D; font-family: "Arial";' textLength='10.27px' lengthAdjust='spacingAndGlyphs'>-.5</text>
<text x='316.60' y='572.06' text-anchor='middle' style='font-size: 8.80px;fill: #4D4D4D; font-family: "Arial";' textLength='15.17px' lengthAdjust='spacingAndGlyphs'>-.25</text>
<text x='335.94' y='572.06' text-anchor='middle' style='font-size: 8.80px;fill: #4D4D4D; font-family: "Arial";' textLength='4.90px' lengthAdjust='spacingAndGlyphs'>0</text>
<text x='355.28' y='572.06' text-anchor='middle' style='font-size: 8.80px;fill: #4D4D4D; font-family: "Arial";' textLength='12.24px' lengthAdjust='spacingAndGlyphs'>.25</text>
<text x='374.62' y='572.06' text-anchor='middle' style='font-size: 8.80px;fill: #4D4D4D; font-family: "Arial";' textLength='7.34px' lengthAdjust='spacingAndGlyphs'>.5</text>
<text x='393.96' y='572.06' text-anchor='middle' style='font-size: 8.80px;fill: #4D4D4D; font-family: "Arial";' textLength='12.24px' lengthAdjust='spacingAndGlyphs'>.75</text>
<text x='413.31' y='572.06' text-anchor='middle' style='font-size: 8.80px;fill: #4D4D4D; font-family: "Arial";' textLength='4.90px' lengthAdjust='spacingAndGlyphs'>1</text>
</g>
<defs>
  <clipPath id='cpMjQyLjYzfDQyNi41Mnw1NzkuMzl8NzE0LjUy'>
    <rect x='242.63' y='579.39' width='183.89' height='135.13' />
  </clipPath>
</defs>
<g clip-path='url(#cpMjQyLjYzfDQyNi41Mnw1NzkuMzl8NzE0LjUy)'>
<rect x='242.63' y='579.39' width='183.89' height='135.13' style='stroke-width: 1.07; stroke: #FFFFFF; fill: #FFFFFF;' />
</g>
<g clip-path='url(#cpMC4wMHw0MzIuMDB8MC4wMHw3MjAuMDA=)'>
</g>
<defs>
  <clipPath id='cpMjUwLjg1fDQyMS4wNHw1ODQuODd8Njk1Ljk2'>
    <rect x='250.85' y='584.87' width='170.19' height='111.09' />
  </clipPath>
</defs>
<g clip-path='url(#cpMjUwLjg1fDQyMS4wNHw1ODQuODd8Njk1Ljk2)'>
<rect x='250.85' y='584.87' width='170.19' height='111.09' style='stroke-width: 1.07; stroke: none; fill: #FFFFFF;' />
<polyline points='268.25,695.96 268.25,584.87 ' style='stroke-width: 0.53; stroke: #EBEBEB; stroke-linecap: butt;' />
<polyline points='287.59,695.96 287.59,584.87 ' style='stroke-width: 0.53; stroke: #EBEBEB; stroke-linecap: butt;' />
<polyline points='306.93,695.96 306.93,584.87 ' style='stroke-width: 0.53; stroke: #EBEBEB; stroke-linecap: butt;' />
<polyline points='326.27,695.96 326.27,584.87 ' style='stroke-width: 0.53; stroke: #EBEBEB; stroke-linecap: butt;' />
<polyline points='345.61,695.96 345.61,584.87 ' style='stroke-width: 0.53; stroke: #EBEBEB; stroke-linecap: butt;' />
<polyline points='364.95,695.96 364.95,584.87 ' style='stroke-width: 0.53; stroke: #EBEBEB; stroke-linecap: butt;' />
<polyline points='384.29,695.96 384.29,584.87 ' style='stroke-width: 0.53; stroke: #EBEBEB; stroke-linecap: butt;' />
<polyline points='403.63,695.96 403.63,584.87 ' style='stroke-width: 0.53; stroke: #EBEBEB; stroke-linecap: butt;' />
<polyline points='258.58,695.96 258.58,584.87 ' style='stroke-width: 1.07; stroke: #EBEBEB; stroke-linecap: butt;' />
<polyline points='277.92,695.96 277.92,584.87 ' style='stroke-width: 1.07; stroke: #EBEBEB; stroke-linecap: butt;' />
<polyline points='297.26,695.96 297.26,584.87 ' style='stroke-width: 1.07; stroke: #EBEBEB; stroke-linecap: butt;' />
<polyline points='316.60,695.96 316.60,584.87 ' style='stroke-width: 1.07; stroke: #EBEBEB; stroke-linecap: butt;' />
<polyline points='335.94,695.96 335.94,584.87 ' style='stroke-width: 1.07; stroke: #EBEBEB; stroke-linecap: butt;' />
<polyline points='355.28,695.96 355.28,584.87 ' style='stroke-width: 1.07; stroke: #EBEBEB; stroke-linecap: butt;' />
<polyline points='374.62,695.96 374.62,584.87 ' style='stroke-width: 1.07; stroke: #EBEBEB; stroke-linecap: butt;' />
<polyline points='393.96,695.96 393.96,584.87 ' style='stroke-width: 1.07; stroke: #EBEBEB; stroke-linecap: butt;' />
<polyline points='413.31,695.96 413.31,584.87 ' style='stroke-width: 1.07; stroke: #EBEBEB; stroke-linecap: butt;' />
<line x1='335.94' y1='695.96' x2='335.94' y2='584.87' style='stroke-width: 1.07; stroke-linecap: butt;' />
<polygon points='323.03,592.77 342.75,589.92 362.48,592.77 342.75,595.63 323.03,592.77 ' style='stroke-width: 1.07; fill: #000000;' />
<polygon points='341.27,611.83 360.99,608.97 380.71,611.83 360.99,614.69 341.27,611.83 ' style='stroke-width: 1.07; fill: #000000;' />
<polygon points='333.15,630.89 352.87,628.03 372.60,630.89 352.87,633.74 333.15,630.89 ' style='stroke-width: 1.07; fill: #000000;' />
<polygon points='315.03,649.94 334.75,647.08 354.47,649.94 334.75,652.80 315.03,649.94 ' style='stroke-width: 1.07; fill: #000000;' />
<polygon points='322.29,669.00 342.02,666.14 361.74,669.00 342.02,671.85 322.29,669.00 ' style='stroke-width: 1.07; fill: #000000;' />
<polygon points='320.75,688.05 340.47,685.19 360.19,688.05 340.47,690.91 320.75,688.05 ' style='stroke-width: 1.07; fill: #000000;' />
<rect x='250.85' y='584.87' width='170.19' height='111.09' style='stroke-width: 1.07; stroke: #333333;' />
</g>
<g clip-path='url(#cpMC4wMHw0MzIuMDB8MC4wMHw3MjAuMDA=)'>
<polyline points='248.11,592.77 250.85,592.77 ' style='stroke-width: 1.07; stroke: #333333; stroke-linecap: butt;' />
<polyline points='248.11,611.83 250.85,611.83 ' style='stroke-width: 1.07; stroke: #333333; stroke-linecap: butt;' />
<polyline points='248.11,630.89 250.85,630.89 ' style='stroke-width: 1.07; stroke: #333333; stroke-linecap: butt;' />
<polyline points='248.11,649.94 250.85,649.94 ' style='stroke-width: 1.07; stroke: #333333; stroke-linecap: butt;' />
<polyline points='248.11,669.00 250.85,669.00 ' style='stroke-width: 1.07; stroke: #333333; stroke-linecap: butt;' />
<polyline points='248.11,688.05 250.85,688.05 ' style='stroke-width: 1.07; stroke: #333333; stroke-linecap: butt;' />
<polyline points='258.58,698.70 258.58,695.96 ' style='stroke-width: 1.07; stroke: #333333; stroke-linecap: butt;' />
<polyline points='277.92,698.70 277.92,695.96 ' style='stroke-width: 1.07; stroke: #333333; stroke-linecap: butt;' />
<polyline points='297.26,698.70 297.26,695.96 ' style='stroke-width: 1.07; stroke: #333333; stroke-linecap: butt;' />
<polyline points='316.60,698.70 316.60,695.96 ' style='stroke-width: 1.07; stroke: #333333; stroke-linecap: butt;' />
<polyline points='335.94,698.70 335.94,695.96 ' style='stroke-width: 1.07; stroke: #333333; stroke-linecap: butt;' />
<polyline points='355.28,698.70 355.28,695.96 ' style='stroke-width: 1.07; stroke: #333333; stroke-linecap: butt;' />
<polyline points='374.62,698.70 374.62,695.96 ' style='stroke-width: 1.07; stroke: #333333; stroke-linecap: butt;' />
<polyline points='393.96,698.70 393.96,695.96 ' style='stroke-width: 1.07; stroke: #333333; stroke-linecap: butt;' />
<polyline points='413.31,698.70 413.31,695.96 ' style='stroke-width: 1.07; stroke: #333333; stroke-linecap: butt;' />
<text x='258.58' y='707.19' text-anchor='middle' style='font-size: 8.80px;fill: #4D4D4D; font-family: "Arial";' textLength='7.83px' lengthAdjust='spacingAndGlyphs'>-1</text>
<text x='277.92' y='707.19' text-anchor='middle' style='font-size: 8.80px;fill: #4D4D4D; font-family: "Arial";' textLength='15.17px' lengthAdjust='spacingAndGlyphs'>-.75</text>
<text x='297.26' y='707.19' text-anchor='middle' style='font-size: 8.80px;fill: #4D4D4D; font-family: "Arial";' textLength='10.27px' lengthAdjust='spacingAndGlyphs'>-.5</text>
<text x='316.60' y='707.19' text-anchor='middle' style='font-size: 8.80px;fill: #4D4D4D; font-family: "Arial";' textLength='15.17px' lengthAdjust='spacingAndGlyphs'>-.25</text>
<text x='335.94' y='707.19' text-anchor='middle' style='font-size: 8.80px;fill: #4D4D4D; font-family: "Arial";' textLength='4.90px' lengthAdjust='spacingAndGlyphs'>0</text>
<text x='355.28' y='707.19' text-anchor='middle' style='font-size: 8.80px;fill: #4D4D4D; font-family: "Arial";' textLength='12.24px' lengthAdjust='spacingAndGlyphs'>.25</text>
<text x='374.62' y='707.19' text-anchor='middle' style='font-size: 8.80px;fill: #4D4D4D; font-family: "Arial";' textLength='7.34px' lengthAdjust='spacingAndGlyphs'>.5</text>
<text x='393.96' y='707.19' text-anchor='middle' style='font-size: 8.80px;fill: #4D4D4D; font-family: "Arial";' textLength='12.24px' lengthAdjust='spacingAndGlyphs'>.75</text>
<text x='413.31' y='707.19' text-anchor='middle' style='font-size: 8.80px;fill: #4D4D4D; font-family: "Arial";' textLength='4.90px' lengthAdjust='spacingAndGlyphs'>1</text>
<text x='10.96' y='31.05' style='font-size: 11.00px; font-family: "Arial";' textLength='220.77px' lengthAdjust='spacingAndGlyphs'>Full (purple), subset (cyan) and short (yellow)</text>
<text x='10.96' y='14.93' style='font-size: 13.20px; font-family: "Arial";' textLength='394.24px' lengthAdjust='spacingAndGlyphs'>Correlation coefficients for the five behaviors and the three versions</text>
</g>
</svg>
